﻿id;datum;pohlavi;vek;vzdelani;kraj;obec;risk;zivot1;zivot2;vlast;hrdina;zaporak;hrdinstvi;cesi;email;zajemonovinky;
2;13.03.2015 09:15:07;"0";"1";"2";"1";"4";"1";"0";"0";"1";"Václav Havel";"Miloš Zeman";"6";"2";"peesee@seznam.cz";"0";
3;13.03.2015 10:04:24;"0";"2";"1";"11";"0";"0";"4";"1";"0";"Karel Hašler";"Václav Havel";"4,6,9";"2";"sedlakabasnik@centrum.cz";"1";
4;13.03.2015 12:55:53;"0";"1";"0";"3";"4";"0";"4";"1";"0";"JUDr. Milada Horáková";"Zrádce Karel Čurda";"4,5,8";"2";"rudml@email.cz";"1";
5;13.03.2015 16:28:15;"0";"1";"1";"5";"1";"1";"0";"0";"0";"Dr Beneš";"Kalousek";"4,5,9";"1";"hany73@seznam.cz";"0";
6;13.03.2015 19:16:58;"0";"1";"2";"13";"0";"0";"1";"5";"0";"Karel IV.";"exprezident Klaus";"2,5,8";"0";"lbw@atlas.cz";"1";
7;13.03.2015 19:53:40;"0";"1";"2";"4";"2";"0";"4";"1";"1";"Jozef Gabčík, Jan Kubiš";"Emanuel Moravec";"0,4,10";"2";"filip.antonin@seznam.cz";"1";
8;13.03.2015 22:42:19;"0";"1";"1";"9";"0";"0";"4";"0";"0";"Jan Kubiš";"Karel Čurda";"3,5,10";"2";"jbarvinkovamonika@seznam.cz";"0";
9;14.03.2015 10:36:42;"0";"0";"2";"7";"4";"0";"4";"0";"1";"T.G.Masaryk";"R.Heydrich";"4,6,10";"2";"marnnn@seznam.cz";"0";
10;14.03.2015 12:47:02;"1";"0";"2";"1";"4";"0";"4";"2";"1";"Karel IV.";"Václav Klaus (bývalý prezident)";"5,7,8";"0";"kubitko@seznam.cz";"1";
11;14.03.2015 13:53:52;"1";"0";"0";"14";"1";"0";"6";"0";"0";"Kryl";"Zikmund";"3,4,9";"0";"elizabeth.lawleit@gmail.com";"1";
12;14.03.2015 15:15:04;"0";"1";"0";"5";"2";"0";"4";"6";"0";"parašutistické výsadky vyslané během druhé světové války ";"Klement Gottwald";"0,5,6";"2";"petrumilos@seznam.cz";"1";
13;14.03.2015 17:41:47;"0";"1";"2";"11";"1";"0";"4";"1";"1";"Vaclav Hanka";"Dr. Edvard Beneš";"4,5,10";"0";"info@praguemodels.cz";"0";
14;15.03.2015 09:23:04;"1";"0";"1";"7";"1";"0";"4";"6";"0";"T.G.Masaryk";"Gottwald";"4,6,8";"2";"Kristynnaa@seznam.cz";"0";
15;15.03.2015 09:57:33;"1";"0";"2";"1";"4";"0";"4";"0";"1";"Gabčík, Kubiš";"komunisté";"4,6,10";"0";"jannii@seznam.cz";"1";
16;15.03.2015 10:06:35;"0";"2";"2";"1";"4";"0";"4";"1";"1";"Masaryk";"Gottwald";"0,5,6";"2";"jarosl.vesely@tiscali.cz";"0";
17;15.03.2015 10:18:33;"0";"1";"2";"3";"0";"0";"4";"6";"0";"frontoví vojáci 2. sv. války, odbojáři";"Klement Gottwald, Vasil Bilak";"1,2,6";"0";"savabursik@seznam.cz";"1";
18;15.03.2015 10:35:07;"1";"0";"2";"10";"0";"0";"4";"6";"1";"Masaryka";"Gottwald";"6,7,10";"1";"bohdana.r@seznam.cz";"0";
19;15.03.2015 10:39:03;"1";"1";"1";"11";"1";"0";"6";"0";"1";"české odbojáře";"kolaboranty";"2,4,5";"1";"b1.r@seznam.cz";"0";
20;15.03.2015 11:06:06;"1";"1";"2";"3";"0";"0";"4";"1";"1";"- rodinné příslušníky a ""nechtěné, náhodné"" pomocníky aktivních členů jakéhokoliv odboje (toho, kdo neodmítl pomoc)

- Alois Eliáš";"- Emanuel Moravec (z Čechů)
- Reinhard Heydrich (z těch, kteří do osudu našeho národa zasáhli)";"5,9,10";"2";"dan.ka.dan.ka@seznam.cz";"1";
21;15.03.2015 12:27:02;"0";"1";"2";"8";"4";"0";"4";"1";"0";"Jan Žižka";"Karel Čurda";"6,9,10";"0";"viliamtomcan@email.cz";"1";
22;15.03.2015 12:41:50;"0";"1";"0";"9";"0";"0";"4";"6";"0";"Milada Horáková";"Konrád Henlein";"3,6,9";"2";"dusandvorak@email.cz";"1";
23;15.03.2015 13:02:52;"0";"0";"1";"11";"0";"0";"1";"6";"0";"člověka, který jde přes překážky za svým cílem----";"Emanuel Moravec ";"2,4,5";"2";"lubokl@seznam.cz";"0";
24;15.03.2015 13:20:14;"0";"0";"0";"9";"0";"0";"4";"6";"0";"Jana Palacha";"Konrad Henlein";"2,6,9";"1";"12042000@email.cz";"0";
25;15.03.2015 13:34:54;"0";"0";"2";"12";"3";"1";"0";"0";"1";"JUDr. Emil Hácha za svou oběť, jeho nešťastný osud a nedocenění toho, co pro národ udělal.";"Václav Klaus, symbol likvidace morálních hodnot, jehož už ostatní politici jen následují...";"6,7";"0";"marounek.t@gmail.com";"0";
26;15.03.2015 13:49:49;"0";"1";"2";"3";"4";"0";"5";"6";"0";"svatého Václava";"Klement Gottwald";"4,5,6";"2";"martin@martinholik.cz";"0";
27;15.03.2015 17:27:19;"0";"2";"1";"10";"0";"0";"4";"1";"0";"není největší hrdina, je jen řada malých a o to významnějších postav i postaviček našeho národa";"podobně jako u hrdinů, ani tady není jeden nejhorší ";"5,6,7";"2";"ajchvatalovi@volny.cz";"1";
29;15.03.2015 17:50:54;"0";"0";"0";"10";"0";"0";"4";"1";"0";"Jako českej narod mame spoustu hrdinu, ale asi největší českej hrdina pro mě jě JAN KUBIŠ nebo JOSEF GABČIK ";"To vůbec netušim...";"0,2,6,9";"0";"langpe@seznam.cz";"1";
30;15.03.2015 18:49:56;"0";"2";"1";"9";"3";"0";"4";"4";"1";"Každého kdo vzdoroval bolševikovi v minulosti a kdo vzdoruje neviditelné ruce trhu v současnosti";"Otec - zakladatel mafiánského kapitalismu Ing. Václav Klaus";"0,4,5";"2";"radomir.mach@tiscali.cz";"1";
31;15.03.2015 19:18:48;"0";"0";"0";"12";"0";"0";"4";"1";"0";"naší vojači  bojujici 2sv a partizani a obcane tere ubytovali hledane lidi prersto ze je nemci mohli za to zabit";"hajdrich";"2,6,9";"2";"Tostynator@seznam.cz";"1";
32;16.03.2015 05:32:58;"1";"1";"1";"1";"4";"0";"4";"6";"0";"Za nejvetšího hrdinu považuji Tomáše G.Marasyka.";"Václav Havel";"4,9";"2";"romana.stafkova@rsd.cz";"1";
33;16.03.2015 07:04:38;"0";"0";"0";"5";"0";"0";"4";"6";"0";"Nejni velkých nebo malích hrdinů, jsou jen známí, méně známí, nebo neznámí hrdinové.";"Albrecht z Valčtejna";"0,4,9";"2";"Lojza-H@seznam.cz";"0";
34;16.03.2015 07:17:33;"0";"1";"0";"2";"0";"0";"4";"6";"0";"T.G.Masaryk";"Klement Gotwald";"2,4,9";"0";"mochy70@gmail.com";"0";
35;16.03.2015 11:50:13;"0";"1";"1";"11";"2";"0";"4";"6";"0";"Těžko jmenovat jednoho.";"Klement Gottwald";"2,3,4";"0";"jistr@outlook.cz";"1";
36;16.03.2015 11:50:56;"0";"1";"1";"11";"2";"0";"4";"6";"0";"Těžko jmenovat jednoho.";"Klement Gottwald";"2,3,4";"0";"jistr@cmail.cz";"1";
37;16.03.2015 11:52:43;"0";"1";"2";"6";"0";"0";"4";"1";"0";"Jan Hus";"Gustav Husák";"2,6,9";"2";"dan@sbstrade.cz";"0";
38;16.03.2015 13:25:44;"0";"2";"1";"12";"4";"0";"4";"1";"0";"7 parašutistů  a československé letce britského letectva";"Gottwald, Klaus, Zeman Husák, Bilak, Moravec";"5,9,10";"2";"Marjark@centrum.cz";"1";
39;16.03.2015 13:49:41;"0";"0";"1";"8";"0";"0";"6";"4";"0";"Český lid.";"Ohnutá páteř českého lidu.";"2,4,9";"1";"kokomar@seznam.cz";"0";
40;16.03.2015 14:16:59;"0";"0";"2";"7";"0";"0";"4";"6";"0";"Nelze vybrat jednoho.";"Klement Gottwald";"0,5,9";"0";"frit0ll@seznam.cz";"0";
41;16.03.2015 15:06:20;"0";"0";"1";"5";"1";"1";"4";"5";"1";"Václava Havla";"Miloš Zeman";"1,2,9";"0";"rihova.b@centrum.cz";"0";
42;16.03.2015 15:25:33;"0";"1";"2";"1";"4";"0";"4";"1";"1";"neznámého padlého vojáka";"každý, kdo žije nebo žil na úkor ostatních";"2,6,9";"0";"x@x.cz";"0";
43;16.03.2015 16:35:17;"1";"1";"2";"11";"1";"0";"4";"0";"1";"J.Hus, j.Gabčík,J.Kubiš";"K.Čurda";"2,3,6";"2";"Richardmckim@btinternet.com";"0";
44;16.03.2015 17:34:34;"0";"1";"0";"5";"1";"0";"4";"1";"0";"Karel Kryl";"Václav Klaus";"2,4,9";"2";"PepinDandy@seznam.cz";"1";
45;16.03.2015 21:52:54;"0";"0";"2";"13";"0";"0";"6";"4";"0";"Sv. Václav ";"Emanuel Moravec";"5,6,9";"0";"jirimoravec@post.cz";"0";
46;16.03.2015 23:13:36;"0";"1";"1";"2";"1";"0";"4";"1";"0";"Jan Hus";"Eduard Beneš";"5,6,9";"2";"japonec@seznam.cz";"0";
47;17.03.2015 00:09:22;"0";"0";"2";"12";"0";"0";"4";"6";"0";"T.G. Masaryk";"Jaroslav Nachtmann";"6,9,10";"2";"silvera@centrum.cz";"0";
48;17.03.2015 00:59:04;"0";"0";"1";"3";"0";"0";"4";"1";"0";"Arnošt Hrad";"Edvard Beneš";"2,6,7";"0";"meldalm@gmail.com";"0";
49;17.03.2015 07:05:16;"0";"0";"2";"1";"4";"0";"4";"5";"1";"Jan Hus";"Klement Gottwald";"3,4,5";"2";"miroslav.sulak@natur.cuni.cz";"0";
50;17.03.2015 11:03:48;"1";"1";"1";"1";"4";"0";"5";"4";"1";"Pro mě osobně je nejvtší hrdinkou JUDr. Milada Horáková.";"Klement Gottwald";"4,5,6";"2";"dagmarn@email.cz";"1";
51;17.03.2015 21:33:17;"0";"2";"2";"10";"0";"0";"4";"6";"0";"Jan Amos Komenský a JUDr. Emil Hácha ";"Klement Gottwald a Václav Hanka";"4,6,9";"2";"znemec@seznam.cz";"0";
52;17.03.2015 23:04:31;"0";"2";"2";"3";"4";"0";"4";"6";"0";"Jana Husa";"Vasil Bilak";"2,4,6";"2";"Liborkovec@seznam.cz";"1";
53;18.03.2015 02:24:58;"0";"0";"0";"1";"4";"0";"1";"6";"0";"president republiky Dr. Edvard Beneš";"Václav Havel";"2,6,11";"0";"emental115@seznam.cz";"0";
54;18.03.2015 07:07:30;"0";"2";"1";"7";"4";"0";"6";"1";"0";"Jan Hus";"Gottwald Klement";"2,6,9";"2";"atik32@atlas.cz";"1";
55;18.03.2015 07:33:16;"0";"0";"2";"8";"2";"0";"4";"1";"0";"Karel Janoušek, piloti co létali v RAF";"kolaboranti";"0,9,10";"0";"golflima@seznam.cz";"0";
56;18.03.2015 13:58:17;"1";"2";"1";"11";"1";"0";"4";"6";"1";"Parašutisté Silver A,Silver B";"Gustáv Husák";"1,4,9";"2";"blazkova.marta@seznam.cz";"1";
57;18.03.2015 18:15:17;"0";"0";"2";"1";"4";"0";"4";"1";"0";"Jan Hus";"Emanuel Moravec";"3,6,9";"2";"r0002@seznam.cz";"0";
58;18.03.2015 20:53:51;"1";"2";"1";"13";"0";"0";"4";"5";"0";"JUDr. Emila Háchu";"Klement Gottwald";"3,4,7";"0";"alena.rubackova@seznam.cz";"1";
59;18.03.2015 21:28:23;"0";"0";"1";"11";"0";"0";"4";"1";"1";"Pavlel Vranský";"Karel Čurda";"4,7,10";"2";"gordon.freemen@icloud.com";"0";
60;19.03.2015 10:06:30;"0";"2";"2";"11";"1";"0";"4";"6";"0";"Josefa Mašína";"Emanuel Moravec";"0,4,6";"2";"tomashanakocovi@tiscali.cz";"1";
61;19.03.2015 13:34:43;"0";"0";"1";"6";"0";"0";"4";"6";"0";"Jan Kubiš a Jozef Gabčík";"polistopadová vláda";"5,6,9";"2";"v.gumulak@seznam.cz";"1";
62;19.03.2015 14:35:41;"0";"1";"1";"1";"4";"0";"4";"6";"0";"Dr. Miladu Horákovou";"Klement Gottwald";"4,5,6";"2";"vit.mokry@seznam.cz";"1";
63;19.03.2015 21:23:18;"0";"1";"2";"11";"2";"0";"4";"0";"1";"Jan Palach";"Klement Gottwald";"2,6,9";"2";"tomasvlcek2@gmail.com";"0";
64;20.03.2015 07:28:49;"1";"1";"1";"5";"1";"0";"4";"1";"1";"Nevím, zda je největší, ale znala jsem pplk. Adolfa Černého, který bojoval u Tobruku a na Dukle a velmi mne zaujal jeho životní postoj, kdy jako 20-letý ""kluk"" šel bojovat za naši vlast!";"Emanuel Moravec - vzor přeběhlíků, kam vítr tam plášť.";"4,7,10";"2";"jpreburda@seznam.cz";"0";
65;21.03.2015 07:39:30;"0";"1";"0";"1";"4";"1";"0";"0";"0";"Jan Hus";"Karel Čurda";"4,6,10";"0";"pulec.petr@seznam.cz";"1";
66;21.03.2015 09:23:06;"0";"1";"2";"1";"4";"0";"5";"4";"0";"Jan Palach";"Klement Gottwald";"3,4,5";"0";"david.sumec@gmail.com";"1";
67;21.03.2015 11:42:26;"0";"1";"1";"1";"4";"0";"4";"1";"0";"Jan Lucenbursky";"Klement Gottwald";"3,6,9";"1";"networ@reboot.cz";"0";
68;21.03.2015 16:59:05;"0";"1";"2";"1";"4";"0";"4";"6";"0";"Palach, Havel, Kriegel, Gabčík a Kubiš, s Mašíni ";"Bilak, Husák, Gottwald ";"2,4,10";"2";"tomas.soukup@gisat.cz";"0";
69;22.03.2015 01:35:28;"0";"1";"0";"8";"0";"0";"6";"1";"0";"Ludvík Svoboda";"Václav Klaus";"0,4,10";"0";"177jirka771@seznam.cz";"0";
70;22.03.2015 08:58:45;"0";"2";"1";"5";"2";"0";"6";"1";"0";"Všichni, kteří provedli atentát na Heydricha, Jan Žiška Z Trocnova";"Tzv. prezident Hácha, zrádce Čurda,Gerik a další ale i Gottwald.";"1,8,9";"1";"honzik@mujbox.cz";"0";
71;22.03.2015 09:50:56;"0";"2";"0";"13";"0";"1";"0";"0";"1";"JAN HUS";"Václav Klaus ,Václav Havel";"5,8,9";"2";"jarosvo19@gmail.cz";"0";
72;22.03.2015 09:56:52;"0";"0";"2";"9";"3";"0";"5";"4";"0";"T.G.M.";"Klement Gottwald";"3,4,9";"2";"paveltr@email.cz";"0";
73;22.03.2015 12:08:29;"0";"0";"1";"3";"0";"0";"4";"1";"0";"rotmistr Jozef Gabčík a rotný Karel Svoboda";"Stalin";"4,6,8";"1";"scholzroman420@yahoo.com";"0";
74;22.03.2015 12:12:51;"1";"0";"2";"9";"1";"0";"4";"6";"0";"Všechny, kdo se nebáli položit život za svobodu (legionáři, příslušníci 1. samostatného československého armádního sboru, odbojáři, ...) Hrdinou, ovšem ne v pravém slova smyslu, je jistě František Palacký a lidé kolem něj, kteří usilovali o obrození českého národa.";"Emanuel Moravec a všichni ostatní kolaboranti (nezáleží na století), Vasil Bilak + ostatní signatáři tzv. zvacího dopisu.";"5,6,9";"2";"klara.pilnackova@gmail.com";"1";
75;22.03.2015 12:50:28;"0";"2";"2";"13";"3";"0";"6";"4";"0";"Nebudu uvádět. Není větších či menších hrdinů.";"Z vojenské a politické oblasti nebudu uvádět. ";"6,7,8";"2";"jtomsu1@seznam.cz";"0";
76;22.03.2015 13:34:03;"1";"1";"1";"4";"1";"0";"4";"5";"0";"Hrdinů je velká řada a proto bych jich musela vyjmenovat spoustu. A když 
mám určit jednoho pak je to Jan Kubiš. Atentát na R.Heydricha ho řadí na 
první místo hrdinů našeho národa.
";"Také zde jsou postavy, záporné. Ale tady bych určitě určila Karla Čurdu. I když si to vzhledem k udalostem které nastaly po atentatu možná ani nezaslouží. 
";"2,5,9";"2";"ester.wernerova@atlas.cz";"0";
77;22.03.2015 14:47:25;"0";"1";"1";"2";"3";"0";"4";"4";"1";"Jana Žižku";"Miroslav Kalousek";"0,4,5";"2";"kformanek@seznam.cz";"1";
78;22.03.2015 17:42:11;"0";"0";"1";"5";"1";"0";"4";"6";"0";"Josef Bryks";"Bedřich Reicin";"0,2,6";"2";"ondrej.gelbic@gmail.com";"1";
79;22.03.2015 17:56:45;"0";"2";"2";"14";"3";"0";"4";"1";"0";"M. Jan Hus";"Emanuel Moravec";"2,3,6";"0";"idokulil@volny.cz";"1";
80;22.03.2015 18:40:55;"1";"1";"1";"3";"0";"0";"4";"5";"0";"Mistra Jana Husa ";"Klement Gottwald";"3,6,9";"2";"Ivanastloukalova@hotmail.com";"1";
81;22.03.2015 19:36:24;"0";"1";"1";"9";"0";"1";"0";"0";"1";"mašínové";"žižka";"2,6,10";"2";"plidmila@email.cz";"0";
82;22.03.2015 20:21:15;"0";"0";"1";"7";"0";"0";"4";"0";"0";"Myslím, že hrdinů se našlo hodně, hlavně době 2sv. války. ";"Edvard Beneš";"2,6,7";"2";"micandusan@seznam.cz";"1";
83;22.03.2015 20:55:57;"0";"1";"2";"2";"1";"0";"4";"1";"1";"Přemysl Pitter";"Václav Klaus";"6,8,10";"2";"markvart.pavel@volny.cz";"0";
84;22.03.2015 21:32:05;"0";"1";"2";"11";"1";"0";"4";"6";"0";"Alois Eliáš";"Klement Gottwald";"2,4,6";"2";"petr.smid@nadacepartnerstvi.cz";"0";
85;22.03.2015 23:24:40;"0";"0";"2";"1";"4";"0";"1";"4";"0";"Tomáš G. Masaryk";"Klement Gottwald";"2,3,9";"2";"geronimo.o@seznam.cz";"0";
86;23.03.2015 17:16:10;"1";"2";"2";"1";"4";"0";"4";"1";"1";"Jan Kubiš, Jozef Gabčík";"Klement Gottwald";"4,5,6";"2";"tippmanova@seznam.cz";"0";
87;23.03.2015 21:21:15;"0";"0";"2";"7";"2";"0";"1";"6";"0";"Jan Hus";"Václav Havel";"4,6,10";"0";"novlib@seznam.cz";"1";
88;24.03.2015 00:03:40;"0";"0";"1";"5";"4";"0";"4";"6";"0";"Masaryk";"Gotwald";"2,6,9";"0";"podzemny@gmail.com";"0";
89;24.03.2015 07:42:29;"1";"2";"1";"1";"4";"0";"4";"6";"1";"Jan Hus";"Gottwald";"0,5,9";"0";"apetpet@seznam.cz";"1";
90;24.03.2015 10:30:54;"1";"0";"2";"1";"3";"0";"4";"1";"1";"Matky";"příslušníci informačních agentur všech režimů ";"0,4,6";"2";"martinapoliak@gmail.com";"1";
91;24.03.2015 11:28:22;"0";"0";"1";"1";"4";"0";"6";"1";"0";"Jan Žižka, Přemysl Otakar II.";"Všichni okolo zvacího dopisu.";"0,2,9";"2";"iraeld@gmail.com";"0";
92;24.03.2015 16:32:00;"1";"1";"2";"1";"4";"0";"4";"5";"1";"sv. Václav";"K. Gottwald";"4,8,10";"2";"rita@centrum.cz";"1";
93;24.03.2015 17:23:00;"1";"0";"2";"1";"4";"0";"4";"1";"1";"nespočet neznámých obyčejných lidí, kteří se v určitou chvíli nebáli";"každý kolaborant svého svědomí, škodící lidem i lidstvu";"4,9,10";"0";"Ela.Est@seznam.cz";"1";
94;24.03.2015 22:28:32;"1";"0";"0";"3";"4";"0";"4";"6";"0";"Gabčík, Kubiš";"Zeman";"2,4,6";"0";"lutko2@seznam.cz";"1";
95;24.03.2015 22:40:22;"0";"0";"0";"3";"4";"0";"4";"6";"0";"češi bojující v exilu";"Zeman, Klaus";"2,6,9";"0";"101airborn@seznam.cz";"1";
96;25.03.2015 10:00:27;"0";"1";"1";"11";"2";"0";"4";"1";"0";"Karel Janoušek";"Miloš Zeman";"2,4,5";"0";"stauff@seznam.cz";"1";
97;25.03.2015 10:10:35;"1";"1";"2";"11";"0";"0";"4";"5";"1";"Milada Horáková";"Edvard beneš";"4,5,8";"2";"monikamotyckova@gmail.com";"0";
98;25.03.2015 10:16:20;"0";"1";"2";"8";"2";"0";"6";"1";"0";"Jan Kubiš";"Gottwald";"0,4,9";"2";"pavel.vavrouch@seznam.cz";"1";
99;25.03.2015 11:33:30;"0";"0";"1";"7";"4";"0";"4";"6";"0";"-";"-";"2,5,6";"0";"honzuli@seznam.cz";"1";
100;25.03.2015 14:09:57;"0";"1";"2";"14";"0";"0";"4";"1";"0";"Jan Palach";"Emanuel Moravec";"0,2,4";"0";"cucka@zsloucka.cz";"1";
101;25.03.2015 19:28:39;"0";"0";"2";"9";"0";"0";"4";"6";"0";"škpt. Václav Morávek";"Emanuel Moravec";"2,5,6";"0";"erikstr@atlas.cz";"0";
102;25.03.2015 21:30:22;"1";"1";"1";"1";"4";"0";"4";"6";"0";"Milada Horáková";"Emanuel Moravec";"5,9,10";"2";"kucerova@e-cons.cz";"0";
103;26.03.2015 10:34:30;"0";"0";"2";"11";"2";"0";"4";"6";"0";"Tomáš Garrigue Masaryk";"Klement Gottwald";"2,6,10";"2";"OndrejSedivka@seznam.cz";"0";
104;26.03.2015 15:33:15;"0";"1";"0";"11";"2";"0";"4";"3";"1";"Kníže Václav";"Václav Klaus";"5,6,10";"2";"romanbalas@seznam.cz";"0";
105;26.03.2015 19:48:51;"0";"2";"1";"9";"0";"0";"4";"1";"0";"Jan Masaryk";"Klement Gottwald";"4,5,6";"1";"juraj.strnadek@seznam.cz";"1";
106;26.03.2015 22:14:45;"0";"2";"2";"11";"0";"0";"4";"0";"1";"Mistr Jan Hus";"Emanuel Moravec";"4,9,10";"0";"vlastimil.vilda@email-cz";"1";
107;26.03.2015 22:16:59;"0";"1";"1";"9";"1";"0";"5";"4";"0";"Svatý Václav";"Klement Gottwald";"0,6,10";"0";"petik@ktuo.cz";"1";
108;27.03.2015 09:52:24;"0";"0";"1";"6";"0";"0";"6";"4";"0";"podplukovník Josef Mašín";"Emanuel Moravec";"0,2,5";"2";"masinovec@seznam.cz";"0";
109;27.03.2015 12:09:51;"0";"1";"1";"14";"1";"0";"4";"6";"0";"Jan Hus";"Klement Gottwald";"2,6,9";"0";"Ludekvalenta@gmail.com";"0";
110;27.03.2015 15:13:28;"0";"0";"0";"3";"4";"0";"4";"1";"0";"T.G. Masaryk";"Miloš Zeman";"4,5,10";"1";"spi.david@seznam.cz";"1";
111;27.03.2015 22:43:34;"0";"1";"1";"13";"3";"0";"4";"1";"0";"Palach - atentatnici na Hydricha";"Curda,Gotwald,Klaus";"4,5,9";"2";"w.martin@centrum.cz";"1";
112;29.03.2015 11:25:18;"1";"1";"1";"7";"1";"0";"4";"4";"1";"Každý, kdo dokázal zachránit život druhému.";"Klement Gottwald";"4,5,8";"0";"blanch2@seznam.cz";"0";
113;30.03.2015 06:56:41;"0";"0";"0";"4";"1";"0";"4";"0";"0";"Václava Havla";"Miloš Zeman";"2,4,6";"2";"jarekpec@seznam.cz";"1";
114;30.03.2015 07:35:39;"0";"0";"1";"14";"2";"0";"4";"1";"1";"Ludvík Svoboda a mnohé další.";"Emanuel Moravec";"4,6,7";"1";"renlo@seznam.cz";"1";
115;30.03.2015 10:25:58;"0";"1";"2";"10";"4";"0";"1";"4";"0";"Karel Čapek";"Emanuel Moravec";"4,7,9";"0";"jan-panek@email.cz";"0";
116;30.03.2015 11:37:10;"0";"0";"2";"13";"2";"0";"4";"6";"0";"Jan Kubiš";"Klement Gottwald";"2,9,10";"2";"milankrcmar@fastmail.fm";"0";
117;30.03.2015 13:06:10;"0";"1";"1";"1";"4";"0";"4";"6";"0";"Pravoslav Raichl";"Habsburkové";"1,4,10";"2";"jiratresna@gmail.com";"0";
118;30.03.2015 14:29:05;"1";"0";"2";"1";"4";"0";"4";"1";"0";"Hrdiny a hrdinkami jsou pro mne všichni ti, kteří strádali za válečných dob a dokázali přežít";"nemám takovou vyhraněnou postavu";"3,4,9";"2";"martina.fucimanova@gmail.com";"0";
119;30.03.2015 15:21:57;"0";"0";"2";"1";"4";"0";"6";"4";"0";"Vojáci co bojovali za nás za Druhé světové války a posléze byli za odměnu uvězněni v lágrech.";"Udavači, gestápaci, stbáci a lidé, kteří zradili své morální svědomí a vědomí a podrobili se zrůdným režimům. Mezi ně patří Emanuel Moravec, Klement Gottwald, Bedřich Reicin (ten asi nejvíc).";"2,4,9";"2";"j.verdun@centrum.cz";"1";
120;30.03.2015 15:47:31;"0";"0";"2";"6";"4";"0";"4";"6";"0";"Václav Havel";"Klement Gottwald";"2,9,10";"2";"Petishe@seznam.cz";"0";
121;30.03.2015 21:07:09;"0";"0";"0";"12";"0";"0";"1";"3";"0";"Pavel Tigrid";"Klement Gottwald";"2,5,9";"2";"jaromir.fronc@gmail.com";"1";
122;30.03.2015 23:39:31;"0";"0";"1";"11";"1";"0";"1";"4";"0";"Přemysl Otakar II.";"Sv. Václav";"4,6,9";"2";"12tomb9@gmail.com";"0";
123;31.03.2015 00:00:51;"1";"0";"1";"6";"4";"0";"4";"1";"0";"František Palacký";"Karl Hermann Frank";"2,4,6";"2";"izmel001@gmail.com";"0";
124;31.03.2015 08:56:04;"0";"0";"0";"11";"1";"0";"4";"4";"0";"Václav Havel";"Václav Klaus";"2,5,6";"0";"michal.tomek@autokelly.cz";"0";
125;31.03.2015 08:57:07;"1";"0";"2";"9";"3";"0";"4";"1";"1";"Masaryk";"Husák";"5,6,8";"0";"lu_@centrum.cz";"0";
126;31.03.2015 09:03:09;"0";"0";"2";"13";"2";"0";"4";"5";"0";"Jan Palach";"Klement Gottwald";"3,6,9";"0";"petrluka@centrum.cz";"1";
127;31.03.2015 09:11:01;"0";"1";"0";"13";"0";"1";"0";"0";"0";"V dobe valky a nepokoju vssechny zeny a matky na kterych vse zustane na sstarost";"bohaci";"0,4,5";"2";"canonmarek@senam.cz";"0";
128;31.03.2015 09:12:11;"0";"1";"2";"7";"4";"0";"4";"4";"0";"obycejne lidi";"kazdy karierista ochotny jit pres ""mrtvoly""";"0,4,5";"0";"tomas.halasek@seznam.cz";"1";
129;31.03.2015 09:20:07;"1";"1";"2";"7";"1";"0";"4";"6";"0";"všechni ti ""bezejmenní"" lidé, kteří neztratili víru v sebe a svou zem a dál žili svůj ""obyčejný"" život, který zasvětili nejen své rodině, ale i pomoci ostatním";"pro mě je to období po únoru ´48  a ti lidé, kteří jsou s tímto obdobím spojení";"6,9,10";"2";"salomounova.melanie@seznam.cz";"0";
130;31.03.2015 09:29:18;"1";"0";"2";"11";"0";"0";"4";"6";"0";"Jiří Vícha";"bri. Mašínové";"4,6,10";"2";"ivka22@seznam.cz";"1";
131;31.03.2015 09:33:20;"0";"2";"2";"2";"2";"0";"4";"4";"1";"Mistr Jan Hus z historického pohledu. V současnosti všechny ty z nás, kteří se nebojí a otevřeně se staví proti těm, kteří soustavně a programově ničí naší kulturu a i proti těm, kteří jim v tom vehementně napomáhají.To jsou současní hrdinové";"Nejzápornější postavou našich novodobých dějin je bezesporu Edward Beneš tak jsem také vychoval svého syna. (dodávám,že mám velmi slušné historické vzdělání)Dále chci upozornit, že jste nespecifikovali pojem vlast. Není jasné, zda máte na mysli prostor ve kterém žijeme bez ohledu na na stát a jeho režim, který je samozřejmě v územní shodě s tím, co nazýváte vlastí. Prosím vysvětlete tento pojem blíže a%t nematete ostatní. Děkuji.";"4,5,10";"0";"artmail@seznam.cz";"0";
132;31.03.2015 09:52:52;"0";"2";"2";"14";"0";"0";"4";"5";"0";"Václav Havel";"Klement Gottwald";"2,4,9";"2";"pavelhsw@mybox.cz";"0";
133;31.03.2015 10:25:05;"1";"1";"1";"5";"1";"0";"4";"5";"0";"T.G.Masaryk";"K.Gottwald";"5,6,7";"1";"starpro1@seznam.cz";"1";
134;31.03.2015 10:45:34;"0";"1";"1";"1";"4";"0";"4";"0";"0";"Všechny, kteří dobrovolně nasazují a riskují svůj život či zdraví, aby ochránili druhé.";"Všichni, kteří dobrovolně staví svůj osobní prospěch nad zdraví či životy druhých nebo nad obecné morální hodnoty. ";"5,6,9";"2";"kuba.jezek@gmail.com";"0";
135;31.03.2015 11:01:14;"1";"0";"2";"1";"4";"0";"4";"0";"1";"šimon pánek";"nevím";"4,8,9";"0";"mitrjukova@gmail.com";"0";
136;31.03.2015 11:03:22;"1";"1";"1";"3";"0";"0";"4";"6";"1";"Václav Havel";"Emil Hácha";"4,5,6";"0";"pavlina@mill.cz";"1";
137;31.03.2015 11:24:41;"1";"0";"1";"14";"0";"0";"4";"1";"0";"Václava Havla";"Klement Gottwald";"4,6,9";"2";"vlcivrch@seznam.cz";"0";
138;31.03.2015 12:31:27;"0";"0";"1";"11";"1";"0";"4";"0";"0";"Všechny, kdo riskovali životy sebe a rodin v domácím odboji II sv. války.";"Edvard Beneš";"4,9,10";"0";"rs130@seznam.cz";"0";
139;31.03.2015 13:46:05;"0";"0";"2";"11";"0";"0";"4";"6";"0";"Josef František";"Miloš Zeman";"5,8,10";"2";"mira.blazen@cenrtum.cz";"1";
140;31.03.2015 14:41:29;"0";"1";"1";"14";"3";"0";"6";"4";"0";"Všechny lidi, kteří se za existence protektorátu nebáli riskovat své životy a životy svých nejbližších, a pomáhali a všemožně podporovali, odbojáře, parašutisty, uprchlé spojenecké vojáky, pronásledované občany ať už z politických či rasových příčin, dezertéry a občany utíkající před totálním nasazením.
 Protože nikdy nemohli vědět jestli se nejedná ze strany represivních složek protektorátu o záměrnou provokaci, či museli se mít na pozoru před zvědavým okolím a počítat s tím, že v případě dopadení-prozrazeni je čeká trest nejvyšší.";"Karl Hermann Frank, Emanuel Moravec";"5,6,7";"2";"lazelod.k@seznam.cz";"0";
141;31.03.2015 16:01:10;"0";"1";"1";"1";"4";"0";"4";"0";"1";"Milada Horáková";"Miloš Zeman";"5,6,10";"0";"vj.kombajn@gmail.com";"0";
142;31.03.2015 16:14:39;"0";"0";"1";"9";"1";"0";"4";"0";"0";"Jan Kubiš";"Klement Gottwald";"4,5,9";"0";"hnevsa@atlas.cz";"0";
143;31.03.2015 16:14:58;"0";"1";"1";"13";"2";"0";"4";"4";"1";"František Tomášek";"Klement Gottwald";"0,4,5";"2";"krutov@klikni.cz";"1";
144;31.03.2015 16:20:55;"0";"1";"1";"9";"3";"0";"4";"6";"0";"JUDr. Milada Horáková";"Miroslav Pich-Tůma";"2,6,9";"2";"rkoronthaly@seznam.cz";"0";
145;31.03.2015 16:22:22;"0";"0";"0";"14";"0";"0";"4";"6";"0";"Karel IV";"Marie Terezie";"2,5,10";"2";"loltop@seznam.cz";"0";
146;31.03.2015 16:37:17;"0";"0";"1";"10";"0";"0";"4";"1";"1";"Karel Kramář";"Gottwald";"3,5,9";"1";"stan.kohout@gmail.com";"0";
147;31.03.2015 16:37:30;"0";"0";"1";"5";"4";"0";"4";"1";"0";"Václav Havel";"Vršecký";"5,6,9";"0";"martinkrempa@gmail.com";"0";
148;31.03.2015 16:38:59;"0";"1";"2";"7";"4";"0";"4";"1";"0";"Karel IV.";"Miloš Zeman";"2,6,11";"2";"lukas2015@mizoch.eu";"0";
149;31.03.2015 16:55:35;"0";"1";"0";"14";"2";"0";"4";"6";"0";"Prezident Masaryk";"Klement Gottwald";"0,5,6";"0";"prokes.martin@icloud.com";"0";
150;31.03.2015 17:01:39;"0";"0";"2";"7";"0";"0";"4";"1";"0";"na tuto otázku je obtížné odpovědět. jak můžeme porovnávat hrdinství kupř. našich zahraničních vojáků z dob 2. sv. války, členů odboje, kteří čelili hrozbě vyhlazení vlastní rodiny za pomoc proti katům našeho národa, mladé Mašíny, nebo např. legionáře z dob 1. světové války? Opravdovým hrdinou je kdokoliv, kdo vědomě riskoval nejen život svůj, ale i životy svých blízkých a to vědomě, pro ideály svobody naší, dnes už neexistující, vlasti Republiky Československé, či jejich nástupnických státu ĆR a SR.";"Bezesporu Emanuel Moravec, kterému na paty šlapají vedoucí komunisté, zejména Klement Gottwald a Antonín Zápotocký";"0,2,3";"0";"premsedy@gmail.com";"0";
151;31.03.2015 17:10:16;"0";"0";"1";"1";"4";"0";"4";"6";"0";"Jan Žižka z Trocnova a Kalicha";"Edvard Beneš";"2,6,9";"0";"m.g.streubel@gmail.com";"0";
152;31.03.2015 18:01:07;"0";"1";"1";"8";"1";"0";"4";"6";"0";"Jan Hus";"TÍ CO OHRÁDAJI DUCHODCE A POSTIŽENE ŠMEJDI";"0,6,10";"2";"sedlakradek@seznam.cz";"1";
153;31.03.2015 18:59:32;"1";"0";"2";"8";"0";"0";"4";"6";"0";"Václav Havel";"Karel Čurda";"4,6,9";"2";"ada.falta@centrum.cz";"1";
154;31.03.2015 19:09:29;"0";"1";"1";"1";"4";"0";"4";"0";"1";"Nikoho ";"Nikoho ";"4,7,10";"2";"Jan.Stanicek@gmail.com";"0";
155;31.03.2015 19:25:00;"0";"1";"2";"5";"1";"1";"0";"0";"1";"Járu Cimrmana";"Václav Klaus";"0,4,5";"2";"ponomarev@centrum.cz";"1";
156;31.03.2015 20:03:44;"1";"1";"1";"4";"1";"0";"4";"0";"1";"Karla IV.";"Klement Gotwald";"0,4,10";"2";"f.pecova@seznam.cz";"1";
157;31.03.2015 20:39:19;"0";"0";"0";"10";"0";"0";"4";"6";"0";"Všechny parašutisty. kteří roku 1941 seskočili na naše ůzemí a spáchali atentát na Reinharda Heydricha a všechny Rusy, kteří nás roku 1945 osvobodili.";"Emil Hácha, Václav Klaus a Miloš Zeman";"7,9,10";"1";"FatED250@seznam.cz";"0";
158;31.03.2015 20:58:45;"0";"1";"2";"14";"0";"0";"5";"4";"0";"Sv. Václav";"Plojhar";"4,6,9";"0";"filakm@email.cz";"1";
159;31.03.2015 21:29:25;"0";"1";"0";"7";"3";"0";"4";"6";"0";"Všichni kdo bojovali za svobodu naši vlasti ";"Emanuel Moravec,Karel Čurda";"2,6,9";"2";"vandalosx@seznam.cz";"0";
160;31.03.2015 21:35:43;"0";"1";"0";"1";"4";"0";"4";"6";"0";"Atentátníky na Heydricha";"Emil Hácha";"4,6,9";"2";"hbr@atlas.cz";"1";
161;31.03.2015 21:42:16;"0";"1";"1";"1";"4";"0";"4";"1";"0";"Milada Horáková";"Klement Gottwald";"4,5,6";"2";"roman.bina@seznam.cz";"1";
162;31.03.2015 23:03:45;"0";"1";"1";"3";"4";"0";"4";"1";"0";"Jan Palach";"Karel Čurda";"3,4,6";"2";"jan.rauscher@seznam.cz";"1";
163;01.04.2015 11:28:34;"0";"0";"1";"2";"4";"0";"4";"4";"0";"Emil Hácha";"Edvard Beneš";"1,5,10";"0";"stepanmasek@seznam.cz";"1";
164;01.04.2015 12:00:13;"0";"0";"1";"9";"1";"0";"4";"1";"0";"Václav Havel, Edvard Beneš, T.G.Masaryk, Alois Eliáš, Ivan Martin Jirous";"Klement Gottwald, Alois Indra, Drahomír Kolder, Oldřich Švestka, Antonín Kapek, Vasil Biľak, Miloš Zeman, Václav Klaus";"4,5,9";"2";"kastner.jakub@email.cz";"0";
165;01.04.2015 13:20:04;"0";"0";"2";"12";"3";"0";"4";"4";"0";"Josef Bryks";"Emanuel Moravec";"5,6,9";"2";"550535@seznam.cz";"0";
166;01.04.2015 16:28:28;"1";"0";"2";"11";"0";"0";"4";"0";"1";"Jozef Gabčík";"Miloš Zeman";"5,6,10";"0";"angelsp@seznam.cz";"1";
167;01.04.2015 20:59:23;"0";"1";"0";"1";"1";"0";"4";"6";"0";"Přemysl Otakar II";"Karel Čurda";"5,6,9";"2";"ch.jako.barak@seznam.cz";"1";
168;01.04.2015 22:25:19;"0";"1";"1";"1";"4";"0";"4";"6";"1";"Jan Palach";"Klement Gottvald";"4,6,9";"2";"lukvej@seznam.cz";"1";
169;02.04.2015 09:04:02;"0";"1";"2";"2";"0";"1";"0";"0";"0";"Parašutisté, kteří zlikvidovali R. Heydricha";"Klement Gottwald, Vasil Bilak";"2,4,8";"2";"j.sonka@achilles.cz";"0";
170;02.04.2015 10:08:11;"1";"0";"0";"5";"0";"0";"4";"4";"0";"Jan Hus";"Miloš Zeman";"4,6,10";"0";"makoulicka@seznam.cz";"1";
171;02.04.2015 10:12:45;"1";"0";"2";"11";"1";"0";"1";"4";"1";"nevíz zda největší...ale již na základní škole mne ohromil příběh Milady Horákové, která byla na základě lží a konstrukcí popravena. Její statečnost,to že do poslední chvíle dokázala stát za svým a nepodlehla.... napadla mne jako první. Ale je to těžké říct. Pro někoho může být největším hrdinou někdo, po němž společnost ani neštěkne ";"to nedokáži říct. asi bych označila někoho z dávné historie. nějakého tyrana nebo zrádce :-) ";"6,8,10";"2";"petra.kade@seznam.cz";"0";
172;02.04.2015 11:01:57;"0";"0";"1";"12";"3";"0";"4";"6";"0";"Jan Hus";"Karel Čurda";"0,2,9";"2";"kubisan@seznam.cz";"0";
173;02.04.2015 11:19:23;"0";"1";"1";"7";"3";"0";"4";"6";"0";"Generál Ludvík Svoboda, Jan Hus, ";"Klement Gottwald";"0,2,5";"2";"p.malysek@seznam.cz";"0";
174;02.04.2015 13:04:47;"0";"0";"2";"3";"0";"0";"4";"1";"0";"Jana Husa a každého, kdo hájil pravdu, spravedlnost, svobodu, kdo na úkor vlastní bezpečnosti nemyslel jen na sebe, kdo bojoval proti utlačovatelům.";"Václav Kopecký";"3,6,9";"2";"radim.holub@gmail.com";"1";
175;02.04.2015 14:07:06;"0";"1";"2";"2";"0";"0";"4";"1";"0";"legionáře ve světové válce";"konfidenti gestapa a STB";"4,5,6";"2";"kacikolsany@seznam.cz";"1";
176;02.04.2015 14:51:46;"0";"2";"2";"1";"4";"0";"4";"1";"0";"Těžké rozhodování - J. Hus, T.G.M., V. Havel? Obránci pevností r. 1938, vojáci na frontách nebo lidé na barikádách 1945? Nebo prostí lidé, kteří pomáhali a nezradili?";"Opět těžko vybrat. Udavači z přesvědčení, z pomsty nebo z prospěchu za všech režimů asi nejspíš.";"4,6,10";"2";"henry.robin.2@gmail.com";"0";
177;02.04.2015 18:04:22;"1";"0";"1";"11";"2";"0";"4";"4";"1";"pana prezidenta Václava Havla";"Jéjej, těch je :)";"5,6,9";"2";"acervinkova@email.cz";"0";
178;02.04.2015 18:30:37;"0";"1";"2";"13";"3";"0";"4";"1";"0";"Jan Palach";"Klement Gottwald";"4,6,9";"2";"novacek@robinsonjihlava.cz";"0";
179;02.04.2015 18:40:29;"0";"1";"1";"2";"4";"0";"4";"1";"0";"všichni Přemyslovci";"malej hloupej čecháček";"0,5,6";"2";"jan.laichman@seznam.cz";"0";
180;02.04.2015 21:48:22;"0";"0";"2";"1";"4";"0";"4";"1";"0";"Karel IV.";"Gustáv Husák";"0,4,9";"1";"vrsecky.o@gmail.com";"0";
181;02.04.2015 22:32:29;"0";"0";"1";"1";"4";"0";"4";"6";"0";"T. G. Mararyka";"Karel Čurda";"2,3,9";"1";"simon.studenovsky@gmail.com";"0";
182;02.04.2015 23:18:22;"0";"0";"1";"11";"0";"0";"6";"4";"0";"Soběslava I.";"Karl Hermann Frank";"6,9,10";"1";"v.pekar@seznam.cz";"0";
183;02.04.2015 23:54:42;"0";"1";"0";"12";"2";"0";"6";"4";"0";"T.G.Masaryk, letci v Anglii";"Klement Gottwald";"0,6,9";"2";"jirka.peterka@email.cz";"1";
184;03.04.2015 07:26:14;"1";"1";"2";"3";"4";"0";"4";"0";"1";"Tomáš Garrigue Masaryk";"Klement Gottwald";"4,6,10";"0";"bklobaskova@seznam.cz";"1";
185;03.04.2015 11:22:51;"0";"0";"1";"1";"4";"0";"4";"6";"1";"Havlíček Borovský";"Ludmila Brožová-Polednová";"3,8,9";"2";"jirianovak@gmail.com";"0";
186;03.04.2015 11:54:18;"0";"1";"1";"5";"1";"0";"4";"1";"1";"Jan Ámos Komenský - je jich podstatně více, nelze všechny vyjmenovat";"Klement Gotwald, Vasil Bilak, Václav Klaus, Tomáš Sokol, Ivan Langer";"4,5,10";"2";"milandivis@seznam.cz";"0";
187;03.04.2015 12:01:22;"0";"0";"2";"1";"4";"0";"4";"0";"0";"Chartisté apod.";"Václav Klaus";"5,6,11";"2";"zdglaze.s@centrum.cz";"1";
188;03.04.2015 12:22:47;"0";"1";"0";"4";"1";"0";"4";"0";"0";"Jaromír Jágr";"Miloš Zeman";"6,9,10";"0";"pec-jirka@seznam.cz";"0";
189;03.04.2015 12:29:13;"0";"0";"0";"4";"1";"0";"4";"5";"1";"David Pastrňák";"Klement Gotwald";"1,4,6";"1";"pecdaniel@seznam.cz";"0";
190;03.04.2015 16:15:20;"0";"1";"2";"8";"1";"0";"4";"1";"0";"gen.Ludvík Svoboda,Gabčík-Kubiš, J.František,F.Kriegel";"M.Jakeš-pokud je na zvacím dopise pro Var.smlouvu, K.Gottwald,K.H.Frank";"3,5,9";"2";"mapiua.ivan@gmail.com";"0";
191;03.04.2015 19:01:51;"0";"1";"2";"11";"2";"0";"4";"1";"1";"bratři mašínové";"klement gottwald";"4,7,9";"0";"pavel.v.s@seznam.cz";"0";
192;03.04.2015 19:55:58;"0";"0";"0";"4";"2";"0";"4";"6";"0";"Gabčík a Kubiš";"V.Bilak";"6,9,10";"2";"HoonzaM@seznam.cz";"0";
193;03.04.2015 20:32:58;"0";"1";"1";"2";"1";"0";"6";"4";"0";"Gen. Radola Gajda.";"Dr. Edvard Beneš.";"2,6,9";"1";"ajm@seznam.cz";"0";
194;04.04.2015 12:21:30;"0";"1";"0";"3";"0";"0";"4";"1";"1";"Jan Hus";"Zikmund Lucemburský";"0,4,10";"2";"klobas.zdenek@seznam.cz";"1";
195;04.04.2015 13:09:16;"0";"1";"0";"2";"0";"0";"4";"1";"0";"T.G.Masaryk";"Emanuel Moravec";"4,9,10";"2";"zika-petr@seznam.cz";"1";
196;04.04.2015 14:44:46;"1";"0";"1";"1";"4";"0";"4";"6";"0";"Jana Husa";"Emanuel Moravec";"4,8,10";"0";"lorraine97@post.cz";"1";
197;04.04.2015 17:08:02;"0";"1";"1";"7";"1";"0";"4";"6";"0";"Václav Havel";"Gustav Husák";"5,9,10";"2";"benes.home@seznam.cz";"0";
198;04.04.2015 20:00:01;"0";"1";"0";"9";"0";"0";"6";"4";"0";"Mám samozřejmě několik typů, ale za hrdiny bych považoval všechny kdo bojoval za naši vlast a je úplně jedno na které světové straně.
S těch žijících samozřejmě Generál Jaroslav Klemeš a s těch co zahynuli například Oldřich Pechal, Jan Kubiš, Jozef Gabčík, Generál Píka a Přikryl mnoho dalších";"Například Karel Čurda, Adolf Horák,Jaroslav Nachtman a podobně nechci je ale odsuzovat, sám nevím jak bych se v jeho situaci zachoval??";"0,2,6";"2";"PARAGUNS@seznam.cz";"0";
199;04.04.2015 20:16:59;"1";"0";"1";"1";"4";"0";"4";"5";"0";"Václav Havel";"Boleslav";"2,6,9";"1";"stejkozova3@seznam.cz";"0";
200;04.04.2015 21:46:36;"0";"0";"0";"11";"2";"0";"6";"4";"0";"povazuju vsechny valecne veterany co padli za republiku Csr ale pro me je Fajtl ";"je to nejvetsi kolaborant Emanuel Moravec ";"2,6,9";"1";"12David@seznam.cz";"0";
201;05.04.2015 11:13:48;"0";"1";"2";"10";"4";"0";"4";"4";"0";"Jan Hus, Jan Žižka,TGM";"Václav Havel";"0,4,5";"2";"igorvrecnik@seznam.cz";"0";
202;05.04.2015 12:00:11;"0";"2";"0";"3";"0";"0";"4";"6";"0";"Opálka  Vavrda a jejich spolubojovníci";"komunisti";"2,6,9";"2";"berka8280z@seznam.cz";"1";
203;05.04.2015 12:36:11;"0";"1";"0";"6";"2";"0";"4";"6";"0";"Václav Morávek";"Klement Gottwald";"4,6,9";"2";"mikyxxl@email.cz";"0";
204;05.04.2015 13:28:00;"0";"0";"1";"12";"0";"0";"1";"6";"0";"Tomas Garigue Masaryk";"Klement Gotwald";"0,2,9";"2";"jmicha35@gmail.com";"0";
205;05.04.2015 13:42:48;"1";"1";"0";"4";"0";"0";"4";"6";"0";"všichni, v domácím i v zahraničním odboji, za 2.světové války i dnešní ,novodobí ,váleční veteráni,neumím vybrat jednoho...";"Jan Palach";"2,5,6";"2";"sonakollarova@seznam.cz";"1";
206;05.04.2015 13:50:02;"0";"2";"1";"2";"2";"0";"6";"4";"0";"Jan Hus";"Václav Havel";"0,2,9";"0";"cejen.petr@seznam.cz";"0";
207;05.04.2015 14:00:07;"1";"1";"1";"1";"4";"0";"4";"4";"0";"jaromír jagr";"karel swancrberk";"1,6,7";"0";"blechova21@seznam.cz";"1";
208;05.04.2015 15:16:04;"0";"0";"1";"3";"0";"0";"4";"6";"0";"Jan Kubiš";"Klement Gottwald";"2,6,9";"0";"lahoda.l@seznam.cz";"0";
209;05.04.2015 15:29:23;"0";"0";"0";"2";"4";"0";"4";"3";"0";"Mistr Jan Hus";"Emil Hácha";"2,4,6";"0";"petran.tomas@email.cz";"0";
210;05.04.2015 15:57:38;"1";"1";"2";"1";"4";"0";"4";"6";"0";"Legionari";"komuniste";"2,4,6";"0";"petra@edelmann.cz";"0";
211;05.04.2015 17:59:04;"0";"1";"0";"11";"4";"0";"4";"3";"0";"gen.Karel Janousek";"politici";"2,5,6";"0";"mates.666@email.cz";"0";
212;05.04.2015 18:30:45;"1";"0";"2";"11";"3";"0";"4";"6";"0";"Odbojáře z 2.svetove valky";"kolaboranti";"2,9,10";"2";"Havlujova.gabriela@seznam.cz";"0";
213;05.04.2015 18:38:47;"0";"1";"2";"8";"4";"0";"4";"0";"1";"Parašutisté z krypty";"není jeden";"4,5,10";"2";"jana.valentova@seznam.cz";"0";
214;05.04.2015 18:48:37;"1";"1";"2";"12";"2";"0";"4";"1";"0";"Jan Kubis";"Karel Curda";"1,4,5";"2";"HlaseckaY@seznam.cz";"0";
215;05.04.2015 19:07:25;"0";"1";"0";"11";"0";"0";"4";"6";"0";"Jan Žižka z Trocnova ";"Zikmund Lucemburský ";"2,4,6";"1";"smejkal.predseda@seznam.cz";"0";
216;05.04.2015 19:39:53;"0";"0";"1";"11";"2";"0";"4";"6";"0";"Československé legionáře";"nacističtí a komunističtí kolaboranti";"2,3,6";"0";"sip.jakub@gmail.com";"0";
217;05.04.2015 22:09:14;"0";"2";"1";"13";"1";"0";"4";"4";"1";"všechny vojáky bojující za II.světové války na straně spojenců";"kolaboranty s osou Berlín-Řím-Tokio";"4,5,6";"2";"blafra@seznam.cz";"0";
218;06.04.2015 01:02:42;"1";"1";"1";"1";"4";"0";"4";"6";"1";"ti o kterých se neví, upadli v zapomnění nebo o svém hrdinství ani nikde nemluví";"Hitler, kolaboranti, Gotwald";"4,6,10";"2";"zdenka@gasparik.cz";"0";
219;06.04.2015 05:33:42;"0";"0";"2";"1";"4";"0";"1";"6";"0";"Václav Havel";"václav klaus";"1,2,9";"2";"matousekvojtech@gmail.com";"0";
220;06.04.2015 11:27:25;"1";"2";"2";"3";"1";"0";"4";"1";"1";"Komenský";"Zikmund";"0,4,10";"2";"h.sperkova@seznam.cz";"0";
221;06.04.2015 12:19:53;"1";"2";"1";"3";"4";"0";"4";"6";"0";"Paní Milada Horáková";"Klement Gottwald";"6,9,10";"0";"rozpocty.dvorakova@gmail.com";"1";
222;06.04.2015 19:58:07;"0";"1";"1";"12";"0";"0";"4";"6";"0";"švejk";"Václav";"1,5,6";"2";"monika.kintnerova@seznam.cz";"0";
223;06.04.2015 20:56:57;"0";"2";"2";"9";"0";"0";"4";"6";"0";"Masaryk Tomáš Garigue";"Gottwald Klement";"0,5,6";"2";"bobek@csol.cz";"0";
224;06.04.2015 22:58:14;"0";"0";"2";"6";"0";"0";"4";"6";"0";"Jan Kubiš";"Klement Gottwald";"2,5,9";"2";"PetrStribrny@seznam.cz";"0";
225;07.04.2015 14:03:27;"0";"1";"1";"3";"0";"0";"6";"4";"0";"Jan Hus";"Emanuel Moravec";"2,6,9";"1";"Lubino864@seznam.cz";"0";
226;07.04.2015 14:43:17;"0";"0";"2";"7";"4";"0";"4";"6";"0";"Jozef Gabčík";"Eduard Beneš";"2,9,10";"0";"Ondras.raska@gmail.com";"1";
227;07.04.2015 14:51:08;"0";"0";"1";"1";"4";"0";"4";"6";"0";"jozef gabčík a jan kubiš";"Václav Havel";"4,8,9";"2";"matus.miskar@yahoo.com";"0";
228;07.04.2015 20:07:21;"1";"1";"2";"7";"4";"0";"4";"6";"0";"Václav Havel";"Klement Gottwald";"4,5,6";"2";"raskavit@iol.cz";"0";
229;08.04.2015 08:55:02;"0";"1";"2";"5";"1";"0";"1";"4";"0";"Přemysl Pitter - jeden z mnoha, ale ochoten nasadit život pro všechny, bez ohledu na národnostní původ a vyznání a napříč všemi třemi režimy, ve kterých žil. Největší ""člověk"" 20.století určitě! ";"prokurátor Vaš - Moravec - aj...";"0,2,10";"0";"chlopin@icloud.com";"1";
230;08.04.2015 09:24:05;"1";"0";"2";"11";"0";"0";"4";"1";"0";"Všechny, kdo bojovali za svou vlast, převážně za 2. sv války. Jako např. Karel Kuttelwascher, Faitl, Peřina, Tomáš Sedláček, Peroutka atd..";"Emanuel Moravec";"2,3,6";"0";"Janulak8.kn@seznam.cz";"0";
231;08.04.2015 10:30:50;"1";"2";"0";"1";"4";"0";"4";"1";"1";"Jan Palach";"Jan Žižka";"0,3,10";"2";"helf@volny.cz";"0";
232;08.04.2015 19:02:33;"1";"0";"1";"12";"2";"0";"4";"6";"1";"Obecně každého kdo se nebojí postavit za své ideály a myšlenku a hrdě nese následky svých činů.
Pro mě je hrdinnou Arnošt Lustig";"Zbabělce, egoisty, novodobé harpagony. ";"2,6,10";"2";"pulkrabkova@centrum.cz";"1";
233;08.04.2015 19:05:03;"0";"1";"2";"1";"4";"0";"4";"5";"0";"bratři Mašínové";"Klement Gottwald";"6,9,10";"0";"jzukl@seznam.cz";"1";
234;08.04.2015 23:37:12;"0";"0";"0";"7";"1";"0";"4";"6";"0";"Mého pra strýce , který bojoval ve Fracii";"Miroslav Kalousek a Petr Nečas";"5,7,10";"0";"xKazikJ@seznam.cz";"0";
235;09.04.2015 00:18:31;"0";"0";"1";"12";"4";"0";"4";"0";"1";"Opět jsme to my, že soutěžíme a vybíráme toho největšího hrdinu. Aspoň pro mne je hrdinou každý kdo pomohl i když věděl co všechno může ztratit a jak moc může ohrozit svou rodinu, blízké prátelé atd... ";"Jsem v rozpoložení kdy si myslím, že mi nepřísluší soudit člověka.";"5,9,10";"0";"hacek02@seznam.cz";"0";
236;09.04.2015 18:37:11;"0";"1";"2";"3";"4";"0";"4";"5";"0";"Jana Husa";"Emanuel Moravec";"4,6,10";"2";"taras.ladislav@gmail.com";"1";
237;09.04.2015 19:11:15;"0";"0";"1";"1";"4";"0";"4";"4";"1";"Přemysl Otakar II";"Václav Klaus";"4,6,9";"0";"untentrauer@gmail.com";"0";
238;09.04.2015 19:37:02;"1";"0";"1";"8";"3";"1";"0";"0";"1";"Moji kamaradku";"Moje matka";"7,8,10";"2";"Vytiskovaaa@seznam.cz";"0";
239;09.04.2015 20:33:06;"0";"0";"2";"12";"0";"0";"4";"6";"0";"František Fajtl";"Klement Gottwald";"2,4,9";"2";"miloslav.zahalka@seznam.cz";"0";
240;10.04.2015 09:03:53;"0";"0";"2";"6";"2";"0";"4";"6";"0";"Václav Havel";"Miloš Zeman";"5,6,9";"2";"asavva@seznam.cz";"1";
241;10.04.2015 11:56:05;"0";"1";"1";"14";"1";"0";"4";"1";"0";"Toho, kdo bojuje proti válce. Kdo ve válce zemře je vždy obětí neschopných politiků.";"Finančníci a politici, kteří nechávají nevinné lidi umírat ve válkách.";"0,4,6";"2";"etrebyv123@gmail.com";"0";
242;10.04.2015 12:38:17;"0";"1";"2";"14";"3";"0";"5";"4";"0";"T. G. Masaryk";"Emanuel Moravec";"2,4,5";"2";"dov@klikni.cz";"1";
243;10.04.2015 18:08:08;"0";"0";"2";"1";"4";"0";"4";"6";"0";"Slyšel jsem pár příběhů v rádiu a všichni byli hrdinové. Navíc mé znalosti historie mi nedovolují ukázat jen na jednoho.";"viz otázka 9. Neodvažuji se nikoho konkrétního odsoudit, ale kolaborantů bylo za minulých režimů taky dost.";"3,4,6";"2";"miroslav@stufka.com";"0";
244;11.04.2015 09:27:46;"1";"1";"0";"3";"0";"0";"4";"4";"1";"Dr. Bohdan Pomahač";"nevím";"4,8,10";"2";"m.klapacova@centrum.cz";"0";
245;11.04.2015 11:02:58;"0";"1";"2";"7";"1";"0";"4";"6";"0";"Jan Hus";"Emanuel Moravec";"3,4,5";"2";"zgazar@email.cz";"1";
246;11.04.2015 15:38:52;"1";"0";"0";"13";"0";"0";"4";"6";"0";"Jan Palach";"Zeman";"3,4,10";"0";"ajatrachtova@seznam.cz";"0";
247;12.04.2015 00:26:31;"0";"1";"2";"5";"0";"0";"4";"0";"0";"Tomáš Garrigue Masaryk";"každý kolaborant, udavač, vrah, sadistický totalitní dozorce, napadl mě konfident Emanuel Moravec, nebo Ladislav Mácha, který umučil Josefa Toufara, ale je hrozně těžké vybrat jednu postavu. Ať už jde o známého nebo neznámého člověka, byl by to takový, který poslal na smrt nejvíce nevinných lidí, který ostatním záměrně škodil a Český stát připravil o jeho svrchovanost. Je to ještě těžší proto, že mnoho škod napáchali lidé, kteří měli v podstatě dobré úmysly, například Přemysl Otakar II. nebo Václav IV., Husité mnozí špatní zase svým zlým činem způsobili dobro. Je to prostě hrozně těžké na někoho ukázat prstem. Z dnešní perspektivy jsou nejnegativnější čeští mafiáni a jejich spolupracovníci v politice, také všichni zloději, tuneláři, násilníci žen a dětí, prodavači a výrobci drog... Je toho prostě hrozně moc. 
 ";"2,5,6";"0";"kresleni@seznam.cz";"1";
248;12.04.2015 10:07:58;"1";"2";"1";"10";"0";"0";"4";"6";"0";"Milada Horáková";"Klement Gottwald";"6,7,10";"2";"kysice194@seznam.cz";"1";
249;12.04.2015 13:31:18;"0";"0";"2";"13";"0";"0";"4";"6";"0";"účastníci operace Anthropoid";"Klement Gotwald";"0,2,9";"2";"x.borek@seznam.cz";"0";
250;12.04.2015 15:51:28;"0";"1";"2";"11";"0";"0";"4";"0";"0";"Je velice těžké vybrat jednoho hrdinu, ale z těch veřejně známých bych uvedl např. Františka Kriegela.";"Je jich hodně, ale třeba Klement Gottwald";"4,5,6";"2";"jstadler@post.cz";"1";
251;12.04.2015 22:37:55;"1";"1";"1";"7";"3";"0";"4";"6";"0";"Jan Hus";"Klement Gottwald";"5,6,9";"2";"d.soares@seznam.cz";"1";
252;13.04.2015 00:45:52;"0";"0";"1";"5";"1";"0";"4";"1";"0";"Nemám jednoho konkrétního hrdinu, ale pokud bych měl někoho vybrat, tak by to byli Jan Kubiš a Jozef Gabčík.";"Myslím, že jím je Emanuel Moravec. Jen člověk necharakterní je schopen své původní ideály vyměnit za prospěch a lepší postavení ve chvíli radikální politické změny, která zcela popírala demokratické zřízení. ";"2,6,9";"2";"michel.bilek@seznam.cz";"1";
253;13.04.2015 10:01:40;"0";"1";"2";"3";"0";"0";"4";"1";"0";"Tři krále, tj. Josef Mašín, Josef Balabán a Václav Morávek, a každého, kdo se postaví na stranu slabších a utlačovaných.";"Bohužel neznám dostatečně dobře do hloubky dějiny 20. století (není to můj obor), ale z hlediska morálního dopadu na obyvatele ČR a SR, tak Edvard Beneš.";"3,4,9";"0";"maly.jirka.cz@gmail.com";"1";
254;13.04.2015 10:58:02;"0";"0";"1";"1";"4";"0";"4";"3";"1";"Jan Hus";"Miloš Zeman";"3,6,8";"2";"dgfdsg@btd.cc";"0";
255;13.04.2015 11:35:39;"0";"0";"1";"1";"4";"0";"4";"1";"0";"Miloš Zeman";"Edvard Beneš";"3,6,10";"1";"mkstavebniprace@seznam.cz";"1";
256;13.04.2015 13:31:00;"1";"2";"1";"1";"4";"0";"2";"6";"0";"V. Havel";"V. Postránecký";"2,9,11";"1";"administrator@rozhlas.cz";"1";
257;13.04.2015 16:12:16;"1";"0";"2";"11";"1";"0";"4";"1";"0";"Dr.Milada Horáková";"K.H.Frank";"2,8,9";"2";"cobbra@atlas.cz ";"0";
258;13.04.2015 18:46:34;"1";"0";"1";"11";"0";"0";"4";"6";"0";"Parašutisté ze skupiny Anthropoid ";"Brožová Polednovál Ludmila";"4,5,6";"2";"bohumila.melcova@seznam.cz";"0";
259;13.04.2015 19:41:15;"0";"0";"0";"7";"3";"1";"0";"0";"0";"Jan Žižka";"Zikmund";"6,9,11";"2";"starpep@seznam.cz";"1";
260;13.04.2015 22:13:44;"0";"0";"0";"1";"4";"0";"1";"4";"0";"Václav Havel";"Miloš Zeman";"2,6,8";"2";"simon.koppl@gmail.com";"0";
261;14.04.2015 08:12:37;"0";"2";"2";"14";"2";"0";"4";"0";"1";"Přemysl Otakar II";"Jejich moc a jsou si rovni";"0,4,10";"0";"jisany@seznam.cz";"0";
262;14.04.2015 08:14:31;"1";"0";"1";"1";"4";"0";"4";"1";"1";"Jozefa Gabčíka a Jana Kubiše";"Emanuel Moravec";"4,6,7";"2";"rohackovakristina@seznam.cz";"0";
263;14.04.2015 08:16:11;"1";"2";"0";"3";"4";"0";"4";"6";"1";"Ludvík  Svoboda";"Ty kteří nás zavedli na cestu po které se tet plahičíme";"4,9,10";"2";"paralovamarie@centrum.cz";"1";
264;14.04.2015 08:19:11;"1";"2";"1";"10";"4";"0";"4";"4";"1";"Ženy, které v době válek zůstaly bez mužů, v bídě a nejistotě, a přesto se snažily co nejlíp obstát a vychovávat děti.
Muži, kteří o válku nestáli, a přesto statečně bojovali; i když někteří přežili, nikdy bez následků...";"Husité, kteří v dobách svých tažení ničili a plenili.";"5,6,10";"1";"assol23@seznam.cz";"0";
265;14.04.2015 08:24:07;"1";"1";"2";"8";"1";"0";"4";"0";"1";"T. G. Masaryk";"Vasil Bilak";"4,5,6";"2";"pavla.neverilova@centrum.cz";"1";
266;14.04.2015 08:26:50;"1";"1";"0";"2";"2";"0";"4";"4";"0";"Za největšího hrdinu považuji všechny záchranáře. (policisty, hasiče, zdravotníky a vojáky) a také všechny nesobecké lidi, kteří pomáhají bez nároku na honorář.";"Náš nynější pan prezident a všichni, kteří napadnou bezbranné lidi, a ubližují dětem a zvířátkům!!!";"4,6,8";"0";"077.beruska@seznam.cz";"1";
267;14.04.2015 08:29:17;"1";"1";"1";"6";"3";"0";"4";"6";"1";"Václav Havel";"Klement Gottwald";"6,9,10";"0";"hanica.k@seznam.cz";"1";
268;14.04.2015 08:29:23;"0";"1";"2";"9";"4";"0";"4";"1";"1";"stepan trochta";"Gottwald";"1,3,4";"2";"Danschindler7@gmail.com";"1";
269;14.04.2015 08:32:47;"0";"1";"1";"11";"1";"0";"4";"4";"1";"Jan Hus ";"Klement Gottwald ";"4,5,8";"0";"yweek@seznam.cz";"1";
270;14.04.2015 08:37:04;"0";"2";"0";"9";"0";"0";"6";"4";"0";"Jednoznačně : JAN HUS ";"Adolf Hitler";"6,9,10";"0";"ambrosant@seznam.cz";"1";
271;14.04.2015 08:52:43;"1";"1";"2";"3";"1";"0";"5";"4";"0";"máme mnoho ""bezejmenných"" hrdinů, opravdu velmi statečných ""obyčejných"" lidí, to jsou moji velcí hrdinové, mezi ně zahrnuji i ty, o kterých se ví a zůstali stejně ""obyčejní"" jako ti ostatní. A ještě: i když jsem v otázce  6,8 zatrhla Ano, tak bych tam spíš uvedla: ráda bych, ale nejsem žádný ""přirozený"" hrdina.";"také jich je mnoho a též mnozí ""bezejmenní"", ale každý má šanci se změnit a přijmout odpuštění.";"2,4,6";"2";"jarope.jarope@seznam.cz";"1";
272;14.04.2015 08:58:17;"0";"1";"1";"7";"0";"0";"4";"6";"0";"Jan Hus";"Miroslav Kalousek";"6,8,10";"2";"rnajvar1@varroclighting.com";"1";
273;14.04.2015 09:00:57;"1";"0";"1";"9";"4";"0";"4";"0";"0";"T.G.M a všechny co bojovali v 2.světové válce";"Komunisti a prezidenti v té době";"2,6,10";"2";"skutilova.a@seznam.cz";"1";
274;14.04.2015 09:03:15;"1";"2";"1";"10";"0";"0";"4";"4";"1";"Je to velmi těžká otázka, hrdinové jsou pro mne všichni ti, kteří se zasloužili o nějakou dobrou věc - to je - pro všechny!Takže - já - volím pana doktora - MUDr. Bohdana Pomahače, který pomáhá navrátit se do života všem, kdo to potřebují!";"Podle mne je hodně těch, kteří jsou zápornými postavami našeho národa, ale rozhodla jsem se, nebudu jmenovat ani jednoho, to mně za to ani nestojí - jejich jména uvádět!";"4,6,8";"1";"anna.kryslova@centrum.cz";"1";
275;14.04.2015 09:03:27;"0";"2";"2";"11";"0";"0";"4";"1";"1";"T.G.Masaryk";"Jan Zizka";"3,4,5";"0";"sk.rz@email.cz";"0";
276;14.04.2015 09:03:59;"1";"2";"1";"3";"4";"0";"4";"4";"1";"Michal Velíšek";"Václav Klaus";"0,4,5";"2";"jachurova1@seznam.cz";"1";
277;14.04.2015 09:06:36;"1";"1";"0";"1";"4";"0";"4";"0";"1";"Všechny obyčejné lidi, kteří prožili válku(y) a riskovali smrt pro pomoc ostatním i jim neznámým lidem.
";"Převlékači kabátů jen pro svůj vlastní prospěch. ";"6,7,8";"2";"ln06@seznam.cz";"0";
278;14.04.2015 09:07:29;"1";"2";"2";"8";"4";"0";"4";"1";"1";"Nemám s pojmem hrdina spojenu jednu konkrétní osobnost. Moc si vážím všech bezejmenných, kteří v dobách válečných a v dobách útisku konali tak, že riskovali životy své i svých blízkých.";"Také tady bych těžko hledala jedno jméno. Osobně považuji za odsouzení hodné ty lidi, kteří vědomě, příp. pro zisk škodí žoldnéři, nájemní vrahové, vědomí šiřitelé infekcí.";"5,6,9";"2";"emilie.petrikova@upol.cz";"1";
279;14.04.2015 09:09:01;"1";"0";"2";"1";"4";"0";"4";"1";"1";"Tezko odpovedet, hrdina neni ten, kdo riskuje, ale ten, kdo riskuje, i kdyz se boji.";"ten, kdo zaproda";"2,6,10";"0";"cojevamdotoho@budteradizavyplneni.cz";"0";
280;14.04.2015 09:09:30;"0";"2";"2";"1";"4";"0";"1";"6";"1";"Jan Hus";"páter Koniáš";"0,5,7";"2";"BJaroslav@seznam.cz";"0";
281;14.04.2015 09:09:46;"1";"1";"2";"3";"1";"0";"4";"4";"1";"Marie Terezie - prosadila tzv. tereziánské reformy,všeobecnou školní docházku, sjednotila trestní právo, podporovala podnikání. Byla první a jedinou vládkyní na českém trůně. ";"Politici posledních 10ti let";"4,6,10";"1";"Nivkovicova@seznam.cz";"1";
282;14.04.2015 09:19:46;"0";"2";"1";"11";"1";"0";"4";"1";"0";"Jan Hus";"Václav Havel";"5,6,7";"2";"samwise@nz11.com";"1";
283;14.04.2015 09:20:33;"0";"2";"1";"3";"4";"0";"4";"6";"0";"Mistr Jan Hus";"Vasil Bilak";"4,5,6";"0";"bohuslav.kandrnal@tiscali.cz";"1";
284;14.04.2015 09:22:37;"1";"0";"1";"3";"4";"0";"4";"4";"1";"každého, kdo se postavil a bojoval za náš národ, ať už byl známý nebo neznámý";"vlastizrádce- a že jich za celou historii bylo a je!";"0,6,9";"2";"stazka.slovackova@seznam.cz";"0";
285;14.04.2015 09:42:37;"0";"2";"1";"4";"2";"0";"4";"1";"0";"Jan Žižka";"Klaus Václav";"7,9,10";"2";"sterbavlada@centrum.cz";"0";
286;14.04.2015 09:48:31;"0";"1";"0";"7";"3";"0";"4";"5";"1";"Nevidím rozdíl";"Nevidím rozdíl";"4,5,6";"2";"kova@seznam.cz";"1";
287;14.04.2015 09:49:14;"0";"2";"2";"7";"2";"1";"0";"0";"0";"T.G.Masaryk";"K.Gottwald";"2,6,9";"2";"kika.oleg@seznam.cz";"1";
288;14.04.2015 09:51:20;"1";"2";"0";"8";"2";"0";"4";"0";"0";"Každého,který riskoval svůj život bez ohledu na své potřeby a bezpečí";"Každý,který obětoval život a bezpečí ostatních před svými potřebami";"4,5,9";"2";"ospeja@seznam.cz";"1";
289;14.04.2015 09:52:02;"0";"1";"2";"1";"4";"0";"4";"1";"0";"skaut a odbojář MUDr. Jaromír Klika
letec František Fajtl
";"Klement Gottwald";"5,6,9";"2";"hpaces@gmail.com";"0";
290;14.04.2015 09:58:01;"0";"1";"2";"1";"4";"0";"4";"5";"0";"Jan Hus";"Karl Hermann Frank";"0,4,5";"1";"igorconka@zmail.sk";"1";
291;14.04.2015 10:04:25;"0";"2";"1";"6";"0";"0";"4";"0";"1";"Václav Havel";"Gustáv Husák";"0,4,5";"2";"vlakr@seznam.cz";"0";
292;14.04.2015 10:10:27;"1";"2";"0";"10";"0";"0";"4";"1";"1";"Mistr Jan Hus";"Václav Klaus";"4,6,9";"2";"dagmar.mala@seznam.cz";"1";
293;14.04.2015 10:11:01;"0";"1";"0";"3";"0";"0";"0";"0";"0";"Jan Hus a bratry Mašíny.";"Václav Havel a Václav Klaus.";"3,6,9";"2";"norweg@seznam.cz";"0";
294;14.04.2015 10:11:09;"0";"2";"2";"10";"4";"0";"4";"1";"1";"J.A.Komenský";"K.Gottwald";"0,5,9";"2";"mreki@seznam.cz";"1";
295;14.04.2015 10:15:00;"0";"2";"1";"8";"0";"0";"4";"5";"0";"Jan Hus";"nevím";"0,4,5";"2";"f.malinek@seznam.cz";"1";
296;14.04.2015 10:17:03;"0";"2";"1";"12";"0";"0";"4";"4";"0";"Jan Hus";"Václav Havel";"4,6,9";"0";"NocarK@seznam.cz";"1";
297;14.04.2015 10:19:56;"1";"1";"1";"4";"2";"0";"4";"1";"0";"Karla IV.";"kolaborant Eduard Moravec";"4,5,10";"2";"d.majickova@seznam.cz";"1";
298;14.04.2015 10:26:08;"0";"0";"0";"2";"0";"0";"4";"1";"0";"Karel IV.";"Antonín Zápotocký";"1,2,6";"2";"pavlik.mracek@live.com";"1";
299;14.04.2015 10:38:09;"1";"2";"2";"6";"0";"0";"0";"0";"1";"Nemohu posoudit";"Nemohu posoudit";"4,7,8";"0";"FragnerovaMadeleine@seznam.cz";"1";
300;14.04.2015 10:39:24;"0";"1";"1";"2";"0";"0";"4";"0";"1";"Václav Havel";"Gustav Husák";"4,8,10";"1";"pacer21@seznam.cz";"1";
301;14.04.2015 10:49:16;"1";"0";"2";"12";"1";"0";"4";"4";"1";"Každý kdo nasadí život pro záchranu ostatních";"Každý, kdo nějak životy ostaních omezuje, ztrpčuje a maří";"4,5,6";"2";"darina.koubinova@gmail.com";"0";
302;14.04.2015 10:49:57;"0";"2";"2";"11";"1";"0";"4";"0";"0";"JUDr Milada Horáková, Jan Palach, Josef Toufar";"Klement Gottwald";"0,3,6";"0";"sjsoukupovi@seznam.cz";"1";
303;14.04.2015 10:50:02;"0";"2";"2";"11";"1";"0";"4";"0";"0";"JUDr Milada Horáková, Jan Palach, Josef Toufar";"Klement Gottwald";"0,3,6";"0";"sjsoukupovi@seznam.cz";"1";
304;14.04.2015 10:52:05;"1";"2";"0";"7";"3";"0";"4";"4";"1";"Jánošík";"Kalousek";"1,4,5";"2";"a.chauturova@seznam.cz";"1";
305;14.04.2015 10:52:33;"1";"1";"1";"1";"4";"0";"4";"1";"1";"Tomáš Garrigue Masaryk";"Klement Gottwald";"4,6,10";"2";"m.slehofer@email.cz";"0";
306;14.04.2015 10:57:54;"0";"2";"0";"8";"2";"0";"4";"5";"1";"Jan Hus";"Klement Gottwald";"4,5,6";"2";"kuzelamilan@seznam.cz";"1";
307;14.04.2015 10:58:46;"1";"1";"2";"12";"1";"0";"4";"3";"1";"sv.Václav";"Jan Žižka";"1,4,6";"0";"v.kou@post.cz";"0";
308;14.04.2015 11:02:32;"0";"0";"1";"4";"2";"0";"4";"6";"0";"Jelikož žiju v dnešní moderní době a je to doba né-dobrá, tak se přikláním k panu Michala Velíška - cena Michala Velíška. Když se zamyslím nad tím, kdo v dnešní době někomu bezplatně pomůže, nebo se jde podívat k ležícímu muži a nemyslet si, že je to hned bezdomovec, ale někdo - kdo pomoc opravdu potřebuje tak je to strašně malé procento lidí, kteří tuto službu ( poslání pomoci někomu) udělají. Kdo se jentak kvůli někomu vystavý nebezpečí pro sebe?? Tak proto asi p. Velíšek.    A v dobách minulých ? asi Oskar Schindler jak ryskoval v té době a další......";"nevím";"4,5,6";"0";"ridick.w@centrum.cz";"0";
309;14.04.2015 11:11:54;"1";"2";"1";"6";"0";"0";"4";"5";"0";"Jana Palacha";"Klement Gotwald";"4,5,6";"2";"valida@centrum.cz";"1";
310;14.04.2015 11:20:59;"0";"0";"1";"5";"0";"0";"4";"1";"0";"Jan Hus, Tomáš Garrigue Masaryk, kpt. Karel Pavlík a svým způsobem i Jan Žižka";"Ludvík Svoboda, Klement Gottwald a Antonín Zápotocký";"1,6,9";"1";"j.holousek@seznam.cz";"0";
311;14.04.2015 11:40:42;"0";"2";"1";"13";"0";"0";"4";"6";"0";"kupec sámo";"gotwald";"4,9,10";"2";"rudapicmaus@email.cz";"1";
312;14.04.2015 11:41:55;"1";"2";"1";"5";"1";"0";"6";"1";"0";"Milada Horáková";"Miloš Zeman";"2,4,9";"0";"Tvrdikova.Iva@seznam.cz";"1";
313;14.04.2015 11:48:38;"0";"1";"1";"12";"3";"0";"4";"6";"0";"praotec Čech";"pan Zeman";"0,4,9";"2";"g.dafca@seznam.cz";"0";
314;14.04.2015 12:05:32;"0";"1";"1";"13";"0";"0";"4";"5";"0";"karel IV";"Václav Havel";"2,9,10";"0";"vasek1879@seznam.cz";"1";
315;14.04.2015 12:44:31;"1";"1";"2";"11";"0";"0";"4";"1";"1";"Kubiš";"Gottwald";"4,5,6";"0";"j.dobra@volny.cz";"1";
316;14.04.2015 13:38:24;"1";"2";"0";"11";"2";"0";"4";"4";"1";"všichni kteří se zúčastnili války";"kolaborant";"2,7,9";"2";"irenaroudnicka@centrum.cz";"0";
317;14.04.2015 13:48:59;"0";"0";"0";"12";"0";"0";"4";"3";"1";"Jan Žižka";"Miloš Zeman";"1,2,6";"0";"sebek28@seznam.cz";"1";
318;14.04.2015 14:11:59;"1";"1";"2";"1";"4";"0";"4";"0";"1";"nemám to promyšleno";"nemám to promyšleno";"5,8,9";"2";"rosa.canina@seznam.cz";"0";
319;14.04.2015 14:50:53;"0";"0";"0";"11";"1";"1";"0";"0";"0";"Jan Hus";"Adolf Hitler";"2,6,7";"1";"jan.sobotka1@gmail.com";"1";
320;14.04.2015 14:51:23;"0";"0";"2";"3";"4";"0";"4";"6";"0";"myslím, že by bylo nefér vybrat jednoho hrdinu";"Emauel Moravec";"4,6,10";"2";"jirizavrel@gmail.com";"1";
321;14.04.2015 15:18:05;"1";"1";"2";"1";"4";"0";"4";"0";"1";"nikdo neni černobílý
lidé, kteří v ohrožení života nezradili jiné lidi za komunismu / nacismu ";"Václav Klaus a Miloš Zeman - vědomě směřují orientaci země k Rusku a totalitě";"5,6,10";"2";"pisin@tiscali.cz";"0";
322;14.04.2015 15:22:49;"1";"0";"0";"13";"3";"0";"4";"1";"1";"Členy své rodiny a přátelé";"Miloš Zeman";"4,6,10";"2";"T.1999@seznam.cz";"0";
323;14.04.2015 15:46:16;"0";"1";"2";"3";"4";"0";"4";"0";"1";"Vaclav Havel";"Klement Gottwald";"4,5,6";"0";"slava@law.muni.cz";"1";
324;14.04.2015 15:50:02;"0";"0";"0";"11";"1";"0";"4";"0";"0";"T.G. Masaryk, V. Havel a Karel IV";"Miloš Zeman, Václav Klaus a Jan Lucemburský";"6,8,10";"2";"delis@post.cz";"1";
325;14.04.2015 15:50:44;"0";"0";"0";"11";"1";"0";"4";"0";"0";"T.G. Masaryk, V. Havel a Karel IV";"Miloš Zeman, Václav Klaus a Jan Lucemburský";"6,8,10";"2";"vojtech.delis@gmail.com";"1";
326;14.04.2015 15:57:41;"0";"2";"2";"12";"0";"0";"4";"6";"0";"Mistr Jan HUS, Legionáři v Rusku";"Biĺak,Gottwald";"2,4,6";"2";"mirek.nemec@iol.cz";"1";
327;14.04.2015 16:10:02;"1";"2";"2";"11";"3";"0";"4";"0";"1";"Jan Hus";"pan Kalousek";"0,4,10";"2";"alstep@centrum.cz";"0";
328;14.04.2015 16:15:47;"0";"1";"0";"11";"2";"0";"4";"1";"1";"Klement Gottwald";"Havel";"4,6,10";"0";"dopisy77@gmail.com";"1";
329;14.04.2015 16:20:47;"0";"1";"0";"8";"3";"1";"0";"0";"1";"Jan Hus";"Emil Hácha";"2,4,9";"0";"CD12@seznam.cz";"1";
330;14.04.2015 16:38:58;"0";"1";"1";"14";"1";"0";"4";"6";"0";"Eliáš, Fajtl, Peřina, Vašátko, Havel, Gabčík, Kubiš, Hus, ... máme jich mnoho, které za hrdiny můžeme považovat";"Emanuel Moravec, Zikmund Lucemburský";"5,6,9";"2";"mitunikp@seznam.cz";"1";
331;14.04.2015 16:48:49;"0";"0";"0";"3";"0";"0";"1";"2";"1";"Klement Gottwald";"Václav Havel";"4,7,9";"2";"vmisicak@seznam.cz";"0";
332;14.04.2015 16:58:16;"1";"2";"2";"1";"4";"0";"4";"1";"1";"Václav Havel";"Miroslav Kalousek";"0,4,10";"2";"hel.ticha@seznam.cz";"0";
333;14.04.2015 17:09:29;"1";"2";"1";"3";"4";"0";"4";"6";"1";"Jan Hus, Jan Palach";"K. Gottwald";"3,4,10";"2";"mir.oslava@centrum.cz";"1";
334;14.04.2015 17:37:27;"0";"1";"0";"3";"0";"0";"4";"2";"1";"Jára Cimrman";"Václav Havel";"4,5,6";"0";"tancisautobusem@seznam.cz";"0";
335;14.04.2015 17:48:04;"0";"0";"1";"11";"1";"0";"5";"4";"0";"Václav Havel";"Miloš zEMAN";"2,9,10";"2";"ABohaty@seznam.cz";"0";
336;14.04.2015 18:20:56;"1";"2";"2";"2";"1";"0";"4";"6";"0";"Lidi, kteří se obětovali za války za někoho jiného.";"Těžko se to vybírá, ale asi zrádce vlasti.";"0,4,5";"2";"RVopatkova@seznam.cz";"1";
337;14.04.2015 18:23:54;"0";"0";"1";"9";"1";"1";"0";"0";"0";"Jan Hus, Jan Žižka";"Hitler";"2,5,8";"2";"kuba.spelda@email.cz";"0";
338;14.04.2015 19:40:29;"1";"2";"1";"14";"1";"0";"4";"1";"1";"Jan Hus";"Grebeníček st. /KSČ/";"0,9,10";"1";"lierova,karla@seznam.cz";"1";
339;14.04.2015 19:42:53;"1";"1";"1";"1";"4";"0";"4";"6";"0";"Karla Čapka";"Ten, kdo zabil druhého člověka,pokud to nebylov sebeobraně, při nehodě nebo pod vlivem nemoci(bludů halucinací), ale ve snaze tím něco získat.";"5,6,9";"2";"majka.tomanova@centrum.cz";"1";
340;14.04.2015 19:44:57;"0";"2";"1";"13";"2";"0";"4";"6";"0";"Jan Hus";"Klement Gotwald";"2,6,9";"1";"j.weiser@seznam.cz";"1";
341;14.04.2015 19:50:53;"0";"1";"1";"1";"4";"0";"4";"6";"1";"Karla IV.";"Klement Gottwald";"4,6,10";"0";"mail@folprecht.eu";"1";
342;14.04.2015 20:08:17;"1";"1";"2";"10";"0";"0";"4";"0";"0";"Jan Hus";"Václav Klaus";"4,6,9";"2";"marta.lupomeska@seznam.cz";"0";
343;14.04.2015 20:08:20;"1";"2";"1";"12";"3";"1";"0";"0";"1";"Žádného, nebo jinak, je jich mnoho...";"Jednu nejzápornější říct neumím. Opět si myslím, že jich je mnoho. Jsou to ti, kteří škodili a škodí našemu národu, druhému člověku.";"6,8,9";"2";"alkasparov@seznam.cz";"1";
344;14.04.2015 20:10:26;"0";"1";"0";"7";"4";"0";"4";"6";"0";"sv.václav";"emil hácha";"4,6,9";"0";"welszar.d@seznam.cz";"0";
345;14.04.2015 20:18:59;"0";"2";"2";"3";"4";"0";"4";"4";"1";"Přemysl Otakar II.";"Emanuel Moravec";"2,7,9";"0";"mgrcerny1@seznam.cz";"1";
346;14.04.2015 20:33:00;"1";"2";"1";"1";"4";"0";"4";"5";"0";"sv.Václav";"Komunisté";"0,4,5";"2";"martasteinbauerova@atlas.cz";"1";
347;14.04.2015 20:44:41;"1";"1";"2";"1";"4";"0";"4";"5";"1";"neznámé vojíny";"Brožová-Polednová";"5,9,10";"0";"tkanina@gmail.com";"0";
348;14.04.2015 20:53:41;"0";"0";"2";"3";"4";"0";"1";"4";"0";"Klement Gottwald";"Václav Havel";"4,6,7";"2";"89187@seznam.cz";"0";
349;14.04.2015 20:56:22;"0";"1";"0";"8";"1";"0";"4";"5";"0";"obyčejného člověka co je narod lide";"???????";"0,4,10";"2";"apac7171@seznam.cz";"1";
350;14.04.2015 20:59:22;"1";"2";"0";"10";"0";"0";"4";"5";"0";"Jan Sladký Kozina";"většina cikánů";"4,5,6";"2";"houbovamarie@seznam.cz";"0";
351;14.04.2015 21:33:44;"0";"1";"1";"5";"0";"0";"4";"6";"0";"Jan Hus";"Klement Gottwald";"2,6,10";"2";"kodar.nakewu@seznam.cz";"0";
352;14.04.2015 21:43:38;"1";"1";"1";"1";"4";"0";"4";"0";"1";"Vsechny, kdo prekonali uskali se zacatkem podnikani, pracovali, zdolavali prekazky a vybudovali stabilni firmy, ktere zamestnavaji jine lidi.";"Nevim...";"0,5,6";"2";"marketafungacova@atta-c.cz";"1";
353;14.04.2015 22:00:03;"0";"2";"1";"3";"0";"1";"4";"4";"0";"T.G.Masaryk";"V.Havel";"0,4,5";"2";"Dob.Jan1@seznam.cz";"1";
354;14.04.2015 22:02:43;"0";"1";"1";"1";"4";"0";"4";"6";"0";"československý domácí a zahraniční odboj 1939-45, Lukáš HIRO Hirka a Jirka REGI Schams - zranění novodobí váleční veteráni a moji kamarádi";"prezident Beneš a Klement Gottwald...a současní komunisté-zmrdi";"2,5,6";"1";"m.t.jirsa@seznam.cz";"0";
355;14.04.2015 22:17:24;"0";"0";"0";"1";"2";"0";"4";"1";"0";"Bylo jich víc.";"Bylo jich víc.";"3,9,10";"2";"herman.sterba94@gmail.com";"1";
356;14.04.2015 22:39:08;"0";"1";"2";"11";"0";"0";"4";"6";"0";"Jan Smudek";"Emanuel Moravec";"2,6,9";"0";"michal@pupcsik.cz";"0";
357;14.04.2015 23:19:28;"1";"2";"1";"3";"4";"0";"4";"0";"0";"Armádního generála a presidenta ČSSR LUDVÍKA SVOBODU";"Jindřich Boblig";"4,6,10";"2";"e.brossobva@seznam.cz";"1";
358;15.04.2015 00:30:38;"0";"0";"1";"3";"4";"0";"1";"6";"0";"Klement Gottwald ";"Václav Havel";"1,6,11";"0";"jhrjiskra@seznam.cz";"1";
359;15.04.2015 02:40:02;"0";"1";"0";"1";"2";"1";"0";"0";"0";"JAN ŽIŽKA";"KLEMENT GOTWALD";"5,9,10";"2";"KOZELPAVELL@SEZNAM.CZ";"0";
360;15.04.2015 03:40:14;"0";"2";"2";"1";"4";"1";"0";"0";"1";"Milada Horáková";"Klement Gottwald";"3,5,9";"0";"pilstein@seznam.cz";"0";
361;15.04.2015 06:41:46;"0";"0";"2";"11";"0";"0";"4";"0";"1";"J. Hus, TGM";"K.H.Frank";"4,5,6";"2";"melena.ct@tiscali.cz";"1";
362;15.04.2015 08:47:07;"0";"2";"0";"5";"0";"0";"4";"6";"0";"Komenský";"Gottvald";"0,3,9";"0";"peptrnovak@seznam.cz";"1";
363;15.04.2015 11:28:05;"0";"1";"1";"1";"4";"0";"4";"5";"1";"Přemysl Pitter";"Edvard Beneš";"0,4,6";"0";"elleder@happyend.cz";"0";
364;15.04.2015 15:16:39;"0";"0";"2";"3";"2";"0";"4";"1";"0";"Mistr Jan Hus, Karel Havlíček Borovský, Karel Kryl aj.";"Klement Gottwald  aj. kolaboranti";"4,5,9";"2";"proostatni@email.cz";"0";
365;15.04.2015 16:32:38;"1";"2";"1";"11";"0";"0";"4";"1";"1";"Jan Žižka z Trocnova, i když dokázal ničit kláštery";"Klement Gottwald";"4,5,6";"2";"ROttlova@seznam.cz";"1";
366;15.04.2015 18:01:14;"0";"1";"1";"1";"0";"0";"4";"0";"0";"Vaclava Havla";"Klement Gottvald";"5,6,9";"2";"sedlacek.libor@gumex.cz";"1";
367;15.04.2015 18:09:53;"0";"2";"2";"3";"4";"1";"0";"0";"0";"Jan Hus";"Klement Gottwald";"2,3,9";"0";"pavelk@klikni.cz";"0";
368;15.04.2015 19:56:23;"0";"2";"2";"1";"4";"0";"4";"6";"0";"Mistr Jan Hus, Byl příliš chytrý, aby věřil, že se bude moci vrátit a věděl co ho pak čeká!";"Vrah posledního Přemyslovce v Olomouci ";"2,6,7";"2";"zd.berger@gmail.com";"0";
369;15.04.2015 20:12:10;"1";"2";"2";"1";"4";"0";"4";"1";"1";"J. A. Komenský";"Moravec";"4,5,6";"2";"etruncikova@seznam.cz";"0";
370;15.04.2015 20:20:18;"1";"2";"1";"5";"0";"0";"4";"6";"1";"Jan Amos Komenský";"nevím";"5,6,9";"2";"Babitomkova@seznam.cz";"1";
371;15.04.2015 21:36:04;"0";"1";"1";"5";"4";"0";"4";"1";"0";"Mistr Jan Hus";"terorismus";"5,7,9";"0";"cz701629@tiscali.cz";"0";
372;16.04.2015 10:03:47;"0";"2";"1";"8";"0";"0";"4";"5";"1";"Havel Václav";"Komunisti";"0,4,10";"2";"matousekla@seznam.cz";"1";
373;16.04.2015 10:26:06;"0";"2";"1";"1";"4";"0";"4";"1";"0";"gen. Josef Mašín";"prokurátor Karel Vaš";"2,4,9";"0";"vk3@seznam.cz";"1";
374;16.04.2015 12:39:22;"0";"1";"2";"9";"3";"0";"4";"1";"0";"T.G.Masaryka";"Emanuel Moravec";"2,3,6";"2";"adolf.vondrka@volny.cz";"1";
375;16.04.2015 15:00:49;"1";"2";"1";"3";"0";"0";"4";"1";"1";"Jan Hus";"V.Klaus";"4,6,8";"2";"marie.humplikova@seznam.cz";"1";
376;16.04.2015 15:51:19;"0";"1";"1";"1";"4";"0";"4";"6";"0";"Ty, kdož neváhali riskovat život svůj i svých nejbližších při obhajobě pravdy a svobody.";"Klement Gottwald";"0,7,9";"2";"martin.cernik@post.cz";"0";
377;16.04.2015 15:52:37;"0";"1";"1";"1";"4";"0";"4";"6";"0";"Ty, kdož neváhali riskovat život svůj i svých nejbližších při obhajobě pravdy a svobody.";"Klement Gottwald";"0,7,9";"2";"cernik@ans.cz";"0";
378;16.04.2015 16:10:29;"0";"1";"2";"4";"2";"0";"1";"6";"0";"Každého kdo opustil své pohodlí a odešel bojovat za vlast, ideály a svobodu.";"Klement Gottwald";"4,5,9";"2";"hartyanyi@seznam.cz";"0";
379;16.04.2015 17:19:48;"0";"1";"2";"11";"1";"0";"4";"0";"0";"Jan Hus";"Klement Gotwald";"2,4,6";"2";"rene.zavoral@centrum.cz";"0";
380;16.04.2015 17:38:15;"0";"2";"0";"6";"4";"0";"4";"1";"0";"T.G.Masaryk";"Václav Havel";"2,5,6";"0";"kucera.lbc6@email.cz";"1";
381;16.04.2015 20:10:17;"0";"2";"2";"6";"4";"0";"4";"6";"0";"Fajtl";"Bilak";"5,6,10";"2";"ales.prusek@seznam.cz";"1";
382;17.04.2015 03:58:33;"0";"0";"1";"2";"0";"0";"4";"1";"1";"Přemysl Otakar II.";"Edvard Beneš";"4,6,9";"2";"mwmf@email.cz";"0";
383;17.04.2015 09:58:50;"0";"0";"1";"2";"1";"0";"4";"0";"1";"Žižka";"komunista";"2,6,9";"2";"milben@email.cz";"0";
384;17.04.2015 15:37:02;"0";"2";"1";"1";"4";"0";"6";"4";"0";"Jan Hus";"Moravec";"1,2,6";"0";"ivo@toufar.cz";"0";
385;17.04.2015 15:48:35;"0";"1";"0";"2";"0";"0";"4";"6";"0";"jan žiška";"Vasil Bilak";"5,7,9";"2";"xhajekj@seznam.cz";"1";
386;17.04.2015 17:57:15;"1";"1";"2";"7";"0";"0";"4";"1";"0";"nevím, nikdo není černobílý";"nevím, nikdo není černobílý";"2,4,9";"2";"maya@lubojaty.eu";"1";
387;17.04.2015 18:23:26;"0";"2";"2";"2";"4";"0";"4";"1";"0";"Hus";"Moravec";"0,6,9";"2";"komendahan@seznam.cz";"1";
388;18.04.2015 07:09:53;"1";"1";"2";"4";"0";"0";"4";"6";"0";"Gabčík a Kubiš";"bratři Mašínovi";"4,6,10";"2";"jace365@gmail.com";"0";
389;18.04.2015 09:57:14;"0";"0";"1";"14";"0";"0";"1";"5";"0";"Nelze určit";"Nelze určit";"2,3,9";"0";"budjazz@seznam.cz";"0";
390;18.04.2015 14:28:57;"0";"1";"1";"3";"0";"0";"0";"0";"0";"Jan Žižka ";"Emanuel Moravec";"3,4,9";"2";"michal.karsky@emal.cz";"0";
391;18.04.2015 14:33:48;"0";"0";"1";"11";"1";"0";"4";"6";"0";"Josef Mašín";"Klement Gottwald
";"2,7,9";"2";"acm@acmik.org";"1";
392;18.04.2015 16:34:46;"0";"0";"0";"8";"4";"0";"4";"1";"0";"Oskar Schindler";"kalousek";"4,6,8";"0";"Surrenderko@gmail.com";"1";
393;18.04.2015 21:42:37;"1";"2";"1";"2";"2";"0";"4";"6";"1";"České letce ve druhé světové válce-atentát na Heidricha";"Klement Gottwald";"4,5,7";"2";"js2010@centrum.cz";"1";
394;18.04.2015 23:24:42;"0";"0";"1";"14";"0";"0";"4";"0";"1";"Jan Hus";"Albrecht z Valdštejna";"3,4,5";"0";"klemsa.david@seznam.cz";"0";
395;18.04.2015 23:38:04;"1";"0";"2";"1";"4";"0";"3";"3";"0";"Babinského";"Kája Mařík";"0,7,11";"1";"michalperic@gmail.com";"1";
396;18.04.2015 23:50:24;"0";"0";"1";"2";"2";"0";"4";"6";"0";"Edvard Beneš
Zikmund a Hanzelka";"Karel Čurda";"5,6,8";"2";"Majinek.11@seznam.cz";"0";
397;19.04.2015 04:39:55;"0";"0";"2";"6";"4";"0";"4";"5";"0";"Jan Hus";"Boleslav (bratr sv. Václava)";"4,7,10";"0";"jiriandr@seznam.cz";"1";
398;19.04.2015 10:42:47;"0";"1";"2";"10";"4";"0";"4";"1";"0";"Karla Čapka";"Klement Gottwald";"4,5,8";"2";"marek.tramba@seznam.cz";"1";
399;19.04.2015 11:08:30;"0";"0";"2";"3";"4";"0";"4";"1";"0";"Jan Hus";"Viktor Kožený";"4,6,11";"2";"chorche001@seznam.cz";"1";
400;19.04.2015 18:16:44;"1";"2";"1";"8";"0";"0";"4";"6";"1";"veteráni, kteří se nebáli nasazovat životy za naši vlast, jednohop jmenovat a druhým uškodit, všichni si zaslouží náš dík";"Zabiják, který zastřelil 8 nevinných lidí";"5,9,10";"2";"skipv@seznam.cz";"1";
401;19.04.2015 22:12:35;"1";"2";"0";"12";"1";"1";"0";"0";"1";"Jan Hus";"Miloš Zeman";"4,7,8";"2";"koubinova@natur.cuni.cz";"0";
402;19.04.2015 22:15:18;"1";"2";"0";"12";"1";"1";"0";"0";"1";"Jan Hus";"Miloš Zeman";"4,7,8";"2";"koubinov@natur.cuni.cz";"0";
403;20.04.2015 11:30:56;"1";"2";"0";"3";"1";"0";"4";"4";"1";"Jan Hus";"Každá hyena která se nestydí okrást nemocné a slabé,což je v dnešní době na denním pořádku. ";"4,5,6";"2";"jitule.minarikova@seznam.cz";"1";
404;20.04.2015 15:53:58;"0";"1";"1";"3";"0";"0";"4";"6";"0";"Jan Žižka";"Emanuel Moravec";"3,4,9";"2";"michal.karsky@email.cz";"0";
405;20.04.2015 16:01:53;"0";"0";"2";"14";"2";"1";"0";"0";"0";"Jan Žižka z Trocnova, Jan Hus";"Babiš";"0,6,9";"2";"kleca8@gmail.com";"0";
406;20.04.2015 17:02:22;"0";"1";"2";"1";"4";"0";"4";"1";"0";"Rudu Kameníka";"Hunimír I.";"5,8,10";"2";"petrkoc@razdva.cz";"0";
407;20.04.2015 18:36:24;"1";"1";"2";"1";"4";"1";"0";"0";"0";"Ruda Kameník z Dornachu";"Hunimír I.";"1,6,9";"0";"u14@seznam.cz";"1";
408;20.04.2015 23:04:44;"1";"2";"0";"12";"2";"0";"4";"6";"0";"Jana Husa";"Gottwald";"4,8,10";"0";"cerna.ludmila11@seznam.cz";"0";
409;21.04.2015 13:20:45;"1";"0";"1";"7";"1";"0";"4";"1";"1";"Konkrétní osoba není, můžu jen napsat koho obdivuji za to co učinili, Karel IV., Jan Hus boj za svou pravdu, lidé kteří každý den překonávají strach a své fyzické či psychické problémy a i přes překážky, které jim osud a život uděluje dokáží pomáhat a chránit třeba i úplně cizí lidi. ";"Karel Čurda.";"4,6,7";"2";"kika031@seznam.cz";"1";
410;21.04.2015 19:26:42;"0";"1";"1";"1";"4";"0";"5";"5";"1";"svatého Vojtěcha";"Klementa Gotvalda";"0,4,9";"2";"stepanosb@seznam.cz";"1";
411;21.04.2015 20:25:15;"1";"0";"2";"7";"4";"1";"0";"0";"1";"Tomáš Garrigue Masaryk";"Heinrich Boblig z Edelstadtu";"2,4,10";"0";"lotty.l@seznam.cz";"1";
412;21.04.2015 23:02:55;"0";"1";"2";"5";"1";"0";"4";"5";"0";"Přemysla Pittera";"Klement Gottwald";"4,9,10";"2";"jakub.kaspar75@gmail.com";"1";
413;22.04.2015 12:51:02;"0";"0";"2";"1";"4";"0";"4";"4";"1";"Každého poctivého a upřímného člověka, který neškodí ostatním a neváhá pomoci v nouzi.";"Každý bez svědomí a morálky.";"0,4,8";"2";"david.skorepa@volny.cz";"0";
414;22.04.2015 16:10:09;"0";"0";"2";"10";"0";"0";"4";"6";"0";"Jan Hus";"Karel Čurda";"2,4,10";"2";"vaclav.kus@seznam.cz";"0";
415;22.04.2015 18:01:31;"0";"1";"1";"1";"4";"0";"4";"1";"0";"Albrecht z Valdštejna";"Václav Havel";"4,7,10";"0";"alex.art029@gmail.com";"0";
416;22.04.2015 18:02:47;"1";"2";"1";"8";"0";"0";"4";"0";"0";"T.G. Masaryk";"Klement Gotwald";"4,9,10";"2";"alena.mak@seznam.cz";"1";
417;22.04.2015 19:28:44;"0";"1";"0";"2";"1";"0";"6";"1";"0";"Hus";"Klaus";"2,3,9";"0";"jaroslavrabek@seznam.cz";"1";
418;23.04.2015 07:06:11;"0";"0";"2";"1";"4";"0";"1";"6";"0";"Josef Gabčák, Jan Kubiš";"Karel Čurda, Emanuel Moravec, Klement Gottwald";"0,6,9";"2";"jan.piskac@gmail.com";"1";
419;23.04.2015 08:07:11;"0";"0";"1";"13";"0";"0";"6";"4";"0";"Jan Hus";"Emanuel Moravec";"5,6,9";"2";"lukasbazala2@seznam.cz";"0";
420;24.04.2015 14:10:55;"0";"1";"1";"3";"4";"0";"4";"1";"1";"Emil Hácha";"Karl Hermann Frank";"4,5,10";"2";"zdenek@ravys.cz";"0";
421;24.04.2015 14:47:20;"1";"1";"2";"3";"4";"1";"0";"0";"1";"Jan Hus";"Karel Sabina";"0,5,7";"2";"ptackova@outmail.cz";"0";
422;24.04.2015 16:03:24;"0";"0";"1";"7";"3";"0";"4";"1";"0";"Kteréhokoliv i bezvýznamného vojína, který stál nezlomně na hranici v těžké a zapeklité době předmnichovské.";"je jich hodně....   např. Emanuel Moravec";"6,8,9";"2";"bulldozero@email.cz";"0";
423;24.04.2015 16:47:03;"1";"2";"2";"2";"3";"0";"4";"5";"1";"každé historické období národa má své hrdiny ";"a také své ""antihrdiny""";"5,8,10";"2";"urlena@seznam.cz";"0";
424;24.04.2015 16:51:58;"0";"0";"0";"5";"1";"0";"4";"6";"0";"Tomáš Garrigue Masaryk";"Emanuel Moravec";"5,6,9";"1";"hans00@email.cz";"0";
425;24.04.2015 20:59:01;"0";"0";"2";"9";"0";"0";"4";"1";"0";"František Peřina";"Zikmund Lucemburský";"4,8,9";"2";"secondrenegade@seznam.cz";"0";
426;24.04.2015 21:31:23;"1";"1";"2";"1";"4";"0";"5";"1";"0";"Svatý Václav";"To je těžké posoudit, neboť nevíme všechno";"2,4,5";"2";"angelika.scb@atlas.cz";"0";
427;26.04.2015 11:56:53;"1";"0";"2";"12";"2";"0";"4";"5";"0";"československé letce, kteří se připojili, za 2. světové války, k RAF";"K.H.Frank";"4,5,6";"2";"vackova.katka@seznam.cz";"1";
428;26.04.2015 13:21:56;"0";"1";"2";"1";"4";"0";"4";"1";"0";"T.G.Masaryk";"Klement Gottwald";"0,3,9";"2";"lubos.cech@gmail.com";"0";
429;26.04.2015 16:02:14;"0";"0";"0";"1";"1";"0";"4";"3";"0";"Pracovníky IZS,";"Karel Toman.";"2,5,6";"0";"jakustra@seznam.cz";"0";
430;26.04.2015 17:45:56;"1";"0";"2";"1";"1";"0";"4";"6";"0";"T. G. Masaryk";"Miloš Zeman";"0,2,6";"0";"mariajanckulikova5@gmail.com";"0";
431;26.04.2015 19:00:10;"1";"1";"2";"6";"0";"0";"4";"6";"0";"Jan Palach";"Klement Gottwald";"5,6,9";"2";"jaro.kostalova@seznam.cz";"1";
432;27.04.2015 17:08:27;"0";"0";"1";"1";"4";"0";"4";"0";"0";"J.Kubiš a J.Gabčík";"Klement Gottwald";"6,9,10";"0";"martin_david@seznam.cz";"0";
433;27.04.2015 22:37:33;"0";"1";"2";"1";"4";"0";"4";"0";"0";"Emil Hácha";"Emanuel Moravec";"4,9,10";"2";"zdenek.vild@seznam.cz";"1";
434;27.04.2015 23:21:42;"0";"1";"2";"1";"4";"0";"4";"6";"0";"bezejmenné obránce naší republiky v roce 1938, čili tzv. ""mobilisaci""";"Klement Gottwald";"2,4,9";"2";"cenda.bis@seznam.cz";"0";
435;28.04.2015 11:15:57;"0";"2";"0";"11";"1";"0";"4";"6";"0";"Jednoho člověka asi nelze vybrat /podle jakých kriteriích/. 
Pro mne to je asi Jan Palach, Jan Zajíc, všechni občané a vojáci, co se aktivně postavili proti Hitlerovi, proti komunistické zlomoci atd.dále  přes J.S. Kozinu, J. Husa a teď nevím kdo ještě....
";"Asi ti, co se zaprodali, zase je těžké vybrat jednoho.
Bilak a spol., Husák, Gottwald,Slánský, Moravec, Sabina,  atd.
";"1,7,9";"2";"ekim@centrum.cz";"0";
436;28.04.2015 16:48:41;"1";"0";"1";"3";"0";"0";"4";"6";"1";"Jan Kubiš a ostaní parašutisti z operace Antopoid";"všichni čeští kolaboranti,hlavně Karel Čurda";"3,4,9";"2";"bednarovaamartina@gmail.com";"0";
437;28.04.2015 20:00:16;"0";"0";"1";"12";"0";"0";"4";"0";"1";"Československé vojáky ve světových válkách. ";"Dezertéři a kolaboranti";"3,6,9";"1";"honza.svetlik@seznam.cz";"0";
438;28.04.2015 21:12:53;"0";"0";"1";"11";"1";"0";"4";"0";"1";"nelze to takhle říci - možná Jan Palacha nebo Gabčík a spol";"prezident Klement Gottwad";"4,9,10";"0";"laca@volny.cz";"0";
439;28.04.2015 22:05:46;"0";"0";"1";"5";"1";"0";"4";"6";"0";"gen. Sedláček";"Václav Havel";"0,4,5";"2";"Tommy.V@seznam.cz";"0";
440;28.04.2015 22:39:03;"0";"1";"0";"5";"0";"0";"4";"6";"0";"Václav Havel";"Klement Gottwald";"3,5,9";"2";"patrik@sucharda.cz";"0";
441;29.04.2015 13:36:22;"0";"1";"2";"2";"1";"0";"4";"6";"0";"Kazdeho kdo je ochoten obetovat pro vlast a budoucnost naroda a vlasti. Mel-li bych zvolit jmenovite tak bych zvolil parasutisty kteri provedli atentat na heydricha.";"Kolabranty obecne.";"3,6,9";"2";"jj.jan.jaros@gmail.com";"1";
442;29.04.2015 16:46:49;"0";"1";"0";"11";"1";"0";"4";"6";"0";"Nevím";"Beneš";"0,4,5";"2";"painter68@volny.cz";"0";
443;29.04.2015 17:30:32;"1";"0";"2";"11";"1";"0";"1";"5";"0";"T.G.Masaryk";"David Rath";"4,6,9";"1";"martina.rebcova@gmail.com";"0";
444;29.04.2015 19:16:27;"1";"0";"2";"4";"2";"0";"4";"1";"1";"Jan Hus";"E. Moravec";"0,4,6";"1";"teja1@centrum.cz";"0";
445;29.04.2015 20:09:24;"1";"0";"2";"13";"1";"0";"4";"6";"0";"E. Beneš ";"Klement Gottwald ";"4,9,10";"1";"Nikola.Vanhova@seznam.cz";"0";
446;30.04.2015 07:39:12;"1";"0";"1";"6";"3";"0";"4";"5";"0";"Jan Hus";"Karel Vaš";"4,5,6";"2";"mata,lejskova@seznam.cz";"0";
447;30.04.2015 08:16:24;"1";"2";"2";"11";"0";"0";"4";"1";"0";"Josefa Mašína, legioníře a odbojáře";"Zrádce, kteří pozvali v roce 1968 vojska Varšavské smlouvy";"1,4,10";"2";"pankova.k@seznam.cz";"1";
448;30.04.2015 08:35:42;"1";"1";"1";"1";"4";"0";"4";"4";"0";"Ludvík Svoboda";"Klement Gottvald";"6,7,10";"1";"dana.skolova@seznam.cz";"0";
449;30.04.2015 10:06:49;"0";"1";"2";"3";"1";"0";"4";"1";"0";"Járy Cimrmana";"T.G.M.";"6,9,10";"0";"mpp@seznam.cz";"1";
450;30.04.2015 12:03:41;"0";"0";"2";"7";"3";"0";"4";"0";"0";"Jan Hus";"Klement Gottwald";"5,6,9";"0";"marulo@seznam.cz";"0";
451;30.04.2015 15:31:07;"0";"0";"0";"14";"3";"0";"6";"1";"0";"Karel Janoušek";"Zeman a jemu podobní";"2,6,8";"1";"cermis100@email.cz";"0";
452;30.04.2015 21:02:53;"0";"0";"1";"1";"4";"0";"4";"6";"0";"Jozef Gabčík a Jan Kubiš";"Václav Havel";"2,5,6";"2";"r.kladivo@seznam.cz";"0";
453;30.04.2015 21:40:43;"0";"0";"1";"8";"4";"0";"4";"6";"0";"Josef Mašín";"Klement Gottwald";"0,2,9";"0";"MelounOi@seznam.cz";"0";
454;01.05.2015 10:49:05;"0";"0";"0";"8";"2";"0";"4";"6";"0";"Jan Žiška";"Komunisti ,Havel ,Klaus.";"2,6,9";"0";"kratochvilljan@seznam.cz";"1";
455;01.05.2015 13:25:17;"0";"0";"2";"3";"0";"0";"4";"6";"0";"Josef Mašín";"Gottwald";"2,6,9";"0";"helonap@seznam.cz";"0";
456;01.05.2015 14:27:24;"1";"0";"0";"1";"4";"0";"4";"5";"0";"Karel IV.";"Klement Gottwald";"4,6,8";"2";"sarka.emrova@gmail.com";"0";
457;01.05.2015 14:28:00;"1";"0";"0";"1";"4";"0";"4";"5";"0";"Karel IV.";"Klement Gottwald";"4,6,8";"2";"emrova.sarka@seznam.cz";"0";
458;02.05.2015 19:09:19;"0";"0";"1";"10";"2";"0";"4";"6";"1";"MILADA HORÁKOVÁ";"Klement Gottwald";"4,6,10";"2";"david344@seznam.cz";"1";
459;02.05.2015 23:49:28;"0";"0";"2";"14";"1";"0";"4";"6";"0";"pplk. Josef Mašín";"Emanuel Moravec";"4,5,8";"0";"kalda126@seznam.cz";"0";
460;03.05.2015 01:13:56;"1";"0";"1";"5";"0";"0";"4";"1";"0";"MOJE MÁMA";"Kazisvět III.";"4,6,10";"0";"editka.j@seznam.cz";"0";
461;03.05.2015 13:16:13;"0";"1";"1";"11";"1";"0";"4";"1";"0";"Jan Žižka ";"Klement Gottwald";"4,5,9";"2";"pokorny.jaromir@post.cz";"0";
462;04.05.2015 12:57:36;"0";"0";"1";"1";"4";"0";"4";"6";"0";"





















T.G. Masaryk. Dokázal vzdorovat nepřízni osudu, celý život bojoval za spravedlnost a dosova ""vydupal"" republiu z ničeho";"Emanuel Moravec. Zrádce a kolaborantsý zaprodanec.";"2,3,6";"2";"MBlata@seznam.cz";"0";
463;04.05.2015 17:05:00;"0";"1";"2";"3";"4";"0";"4";"0";"1";"Jan Žižka";"Klement Gottwald";"5,6,7";"0";"otacz@seznam.cz";"0";
464;04.05.2015 18:46:55;"0";"1";"0";"5";"3";"0";"5";"6";"0";"T.G.M.";"Gustáv Husák";"0,8,9";"1";"cajadym@centrum.cz";"1";
465;05.05.2015 18:37:02;"0";"0";"1";"12";"1";"0";"4";"6";"0";"Kohokoli, kdo povstal proti útlaku. Například Mořic Levy";"Emanuel Moravec";"0,6,9";"0";"mirda.schamek@seznam.cz";"0";
466;05.05.2015 21:38:55;"0";"2";"2";"4";"0";"0";"4";"4";"0";"Jan Hus";"Emanuel Moravec";"2,4,9";"0";"BLAZEKJHB@email.cz";"0";
467;05.05.2015 21:40:27;"0";"0";"1";"1";"4";"0";"1";"6";"0";"Jan Hus";"Václav Klaus";"6,8,9";"0";"novojin@centrum.cz";"0";
468;05.05.2015 22:01:20;"0";"0";"1";"11";"0";"0";"1";"6";"0";"Josef Balabán";"Karel Čurda";"2,6,9";"2";"pavel.p3k@seznam.cz";"1";
469;05.05.2015 22:05:41;"0";"1";"0";"5";"4";"0";"4";"5";"1";"jan hus";"havel";"4,5,8";"0";"romis78@seznam.cz";"0";
470;06.05.2015 07:31:13;"1";"2";"1";"7";"3";"0";"4";"1";"1";"Po tom, co slyším v poslední době z medií k 70.výročí ukončení 2,sv.války,se začínám ptát :"" Byla tu vůbec Rudá armáda ??Válka byla jenom v Plzni ,kterou osvobodili Američané ?? A pak bylo Pražské povstání ?? Jak to vlastně bylo ?? A co je potom hrdinství ??Je mi přes 60 a začínám se ptát - existuje hrdinství ?? "" ";"Ovlivněna současnými médii , nevím, kdo je kladný a kdo záporný hrdina.";"0,5,7";"2";"petra.mamka@seznam.cz";"0";
471;06.05.2015 09:36:47;"1";"1";"2";"9";"3";"0";"4";"0";"1";"Václav Havel";"Klement Gottwald";"0,4,11";"2";"blam@email.cz";"0";
472;06.05.2015 14:47:49;"1";"0";"2";"14";"0";"0";"4";"5";"1";"necítím se tak vzdělaná, abych dokázala říci poueze jedno jméno. Vždy obdivuji příběhy obyčejných lidí, individuální životy, které nejsou v učebnicích a přesto jsou hrdinské. (viz paměť národa)";"viz odpověď výše. V moderních dějinách jsou pro mě záporní představitelé komunistického režimu (např. Klement Gottwald)";"2,4,5";"2";"kracinovalibuse@seznam.cz";"0";
473;06.05.2015 14:48:17;"0";"2";"0";"2";"0";"0";"4";"6";"0";"Karel IV";"V.Klaus";"4,6,7";"2";"zdenek.pitra@seznam.cz";"1";
474;06.05.2015 14:49:55;"0";"0";"1";"5";"0";"0";"4";"6";"0";"Českoslovenští letci";"Klement Gottwald";"2,6,9";"2";" vtezky@seznam.cz";"0";
475;06.05.2015 18:26:20;"0";"2";"1";"9";"4";"0";"4";"5";"0";"---";"----";"2,4,6";"0";"du.ben@tiscali.cz";"0";
476;06.05.2015 19:25:49;"0";"0";"2";"5";"1";"0";"4";"1";"1";"Havel";"Gottwald";"5,6,8";"2";"irane@centrum.cz";"0";
477;06.05.2015 20:22:00;"1";"0";"0";"13";"1";"0";"4";"1";"1";"T.G.Masaryk";"E.Beneš";"5,8,10";"2";"gbj";"0";
478;06.05.2015 22:21:27;"0";"0";"0";"3";"4";"0";"1";"4";"0";"Nicholas Winton";"Emanuel Moravec";"5,6,8";"2";"janmlad@seznam.cz";"0";
479;06.05.2015 22:27:36;"0";"0";"2";"7";"4";"0";"6";"4";"0";"Jana Kubiše.";"Emanuel Moravec.";"4,5,6";"2";"radomír.seda@centrum.cz";"0";
480;07.05.2015 00:06:07;"0";"1";"2";"1";"4";"0";"4";"6";"0";"Nevím, asi ty co šli bojovat za naši zem a už se nevrátili. ";"Zbabělí Čech, co přisluhoval nacistům, komunistům a dokazoval své ""hrdinství"" vražděním německého obyvatelstva po vyhrané válce.  Kdybych měl říci jméno, tak jím asi bude prezident Beneš, který dvakrát během deseti let zradil svůj národ a  zničil hrdost tohoto národa, demonstrovanou během 1. světové války našimi legionáři.";"2,3,9";"0";"Miroslav.draxl@gmail.com";"0";
481;07.05.2015 11:39:46;"1";"0";"1";"1";"4";"0";"1";"4";"1";"mistr Jan Hus";"Bohužel, nedokážu odhadnout";"3,8,9";"0";"agnes.ss@seznam.cz";"0";
482;07.05.2015 13:00:05;"0";"0";"2";"1";"4";"0";"1";"4";"1";"Gabčík+Kubiš";"(filmový) Švejk, protože se za něj lidi schovávají";"2,6,11";"2";"taudro@gmail.com";"0";
483;07.05.2015 21:55:23;"0";"0";"0";"3";"4";"0";"4";"1";"1";"Václav Havel";"Klement Gottwald";"1,2,6";"0";"jiri.pap@gmail.com";"0";
484;08.05.2015 20:19:14;"0";"0";"0";"1";"4";"0";"4";"6";"0";"Husité";"Miloš Zeman";"2,6,9";"0";"josef566@seznam.cz";"0";
485;08.05.2015 20:32:24;"0";"0";"0";"1";"4";"0";"4";"6";"0";"Český lid v době povstání";"Miloš Zeman";"2,6,9";"0";"vojta.sekot@seznam.cz";"0";
486;09.05.2015 14:28:00;"1";"1";"1";"1";"4";"0";"1";"6";"0";"slušný člověk :)";"analogicky neslušný člověk :)";"3,5,9";"2";"blankar@centrum.cz";"0";
487;10.05.2015 00:14:48;"0";"0";"1";"12";"1";"0";"4";"6";"0";"Jan Kubiš";"Klement Gottwald";"6,9,10";"2";"pivohlad@gmail.com";"1";
488;10.05.2015 07:47:48;"0";"1";"1";"13";"1";"0";"4";"1";"0";"Heliodor Pika";"Klement Gottvald";"0,2,9";"2";"jindrich.mokros@centrum.cz";"0";
489;10.05.2015 08:59:17;"1";"1";"2";"13";"1";"0";"4";"1";"0";"Jan Amos Komenský";"Zikmund Lucemburský";"4,5,6";"2";"jiruskova.j@seznma.cz";"0";
490;10.05.2015 09:06:59;"1";"0";"2";"4";"2";"0";"5";"4";"0";"Jan Hus";"porevoluční politici";"0,4,5";"0";"libusen@hotmail.cz";"0";
491;13.05.2015 12:33:03;"1";"0";"2";"8";"2";"0";"4";"6";"0";"můj děda";"hitler";"2,5,6";"0";"hrosice.hrosice@seznam.cz";"0";
492;14.05.2015 10:31:27;"0";"1";"2";"11";"1";"0";"4";"1";"1";"Karel IV.";"Alexej Čepička";"0,4,10";"0";"petr.sehnoutka@rozhlas.cz";"0";
